(module LOGO (layer F.Cu)
  (at 0 0)
 (fp_text reference "G***" (at 0 0) (layer F.SilkS) hide
  (effects (font (thickness 0.3)))
  )
  (fp_text value "LOGO" (at 0.75 0) (layer F.SilkS) hide
  (effects (font (thickness 0.3)))
  )
  (fp_poly (pts (xy 1.629264 -2.163512) (xy 1.676565 -2.148759) (xy 1.719312 -2.121805) (xy 1.751829 -2.086423) (xy 1.762829 -2.065796) (xy 1.777445 -2.031673) (xy 1.794709 -1.986858) (xy 1.813651 -1.934156)
     (xy 1.833304 -1.876373) (xy 1.852699 -1.816313) (xy 1.870867 -1.756781) (xy 1.886840 -1.700581) (xy 1.892758 -1.678274) (xy 1.913814 -1.589326) (xy 1.934224 -1.488923) (xy 1.952977 -1.382541)
     (xy 1.969064 -1.275655) (xy 1.974258 -1.236133) (xy 1.978221 -1.193122) (xy 1.981329 -1.134708) (xy 1.983533 -1.062402) (xy 1.984786 -0.977714) (xy 1.985064 -0.893233) (xy 1.984428 -0.796396)
     (xy 1.982651 -0.713206) (xy 1.979471 -0.640401) (xy 1.974627 -0.574717) (xy 1.967855 -0.512892) (xy 1.958896 -0.451663) (xy 1.947486 -0.387767) (xy 1.942432 -0.362004) (xy 1.929307 -0.296442)
     (xy 2.167467 -0.007304) (xy 2.167467 0.121484) (xy 2.160646 0.285705) (xy 2.140665 0.451254) (xy 2.108249 0.615486) (xy 2.064121 0.775760) (xy 2.009007 0.929433) (xy 1.943630 1.073860)
     (xy 1.871317 1.202267) (xy 1.777942 1.335971) (xy 1.670040 1.463227) (xy 1.549331 1.582350) (xy 1.417537 1.691654) (xy 1.276381 1.789452) (xy 1.263177 1.797694) (xy 1.115323 1.880533)
     (xy 0.955034 1.954266) (xy 0.784610 2.018131) (xy 0.606351 2.071368) (xy 0.422555 2.113215) (xy 0.235522 2.142911) (xy 0.211667 2.145772) (xy 0.153612 2.151118) (xy 0.088043 2.154923)
     (xy 0.019963 2.157082) (xy -0.045625 2.157491) (xy -0.103719 2.156044) (xy -0.143933 2.153229) (xy -0.347170 2.125420) (xy -0.542756 2.084984) (xy -0.730034 2.032303) (xy -0.908342 1.967754)
     (xy -1.077022 1.891717) (xy -1.235415 1.804574) (xy -1.382860 1.706702) (xy -1.518699 1.598481) (xy -1.642271 1.480292) (xy -1.752917 1.352514) (xy -1.849979 1.215527) (xy -1.891061 1.147467)
     (xy -1.961433 1.009722) (xy -2.022325 0.860418) (xy -2.072985 0.702507) (xy -2.112658 0.538943) (xy -2.140589 0.372678) (xy -2.156024 0.206666) (xy -2.159000 0.098354) (xy -2.159192 0.067536)
     (xy -2.159156 0.063500) (xy -1.989755 0.063500) (xy -1.985105 0.143934) (xy -1.968862 0.329500) (xy -1.942093 0.502574) (xy -1.904407 0.664226) (xy -1.855414 0.815528) (xy -1.794722 0.957552)
     (xy -1.721942 1.091370) (xy -1.636682 1.218053) (xy -1.557544 1.316941) (xy -1.450031 1.429319) (xy -1.328732 1.532977) (xy -1.194670 1.627410) (xy -1.048864 1.712117) (xy -0.892336 1.786594)
     (xy -0.726108 1.850337) (xy -0.551199 1.902843) (xy -0.368631 1.943609) (xy -0.245533 1.963685) (xy -0.160392 1.974695) (xy -0.086845 1.981849) (xy -0.020008 1.985191) (xy 0.045005 1.984764)
     (xy 0.113076 1.980611) (xy 0.189092 1.972775) (xy 0.228600 1.967878) (xy 0.420865 1.936065) (xy 0.606717 1.891221) (xy 0.784932 1.833837) (xy 0.954282 1.764406) (xy 1.113543 1.683419)
     (xy 1.261489 1.591369) (xy 1.372692 1.508630) (xy 1.428382 1.460172) (xy 1.488786 1.401525) (xy 1.549879 1.337006) (xy 1.607635 1.270928) (xy 1.658028 1.207607) (xy 1.674102 1.185598)
     (xy 1.743326 1.077204) (xy 1.806746 0.956417) (xy 1.862655 0.827277) (xy 1.909347 0.693821) (xy 1.945117 0.560088) (xy 1.951956 0.528056) (xy 1.964482 0.459136) (xy 1.975810 0.383454)
     (xy 1.985378 0.305925) (xy 1.992626 0.231459) (xy 1.996995 0.164970) (xy 1.998043 0.124139) (xy 1.998133 0.057779) (xy 1.767214 -0.218761) (xy 1.717443 -0.278408) (xy 1.670467 -0.334786)
     (xy 1.627527 -0.386403) (xy 1.589861 -0.431764) (xy 1.558711 -0.469374) (xy 1.535316 -0.497740) (xy 1.520916 -0.515368) (xy 1.517448 -0.519725) (xy 1.501276 -0.552474) (xy 1.499710 -0.586039)
     (xy 1.510969 -0.616975) (xy 1.533270 -0.641833) (xy 1.564832 -0.657169) (xy 1.590171 -0.660400) (xy 1.606678 -0.658476) (xy 1.623102 -0.651486) (xy 1.641600 -0.637606) (xy 1.664327 -0.615010)
     (xy 1.693440 -0.581871) (xy 1.718574 -0.551665) (xy 1.743390 -0.521971) (xy 1.764120 -0.498133) (xy 1.778567 -0.482608) (xy 1.784518 -0.477829) (xy 1.786598 -0.486857) (xy 1.790172 -0.509392)
     (xy 1.794755 -0.542124) (xy 1.799859 -0.581743) (xy 1.800309 -0.585381) (xy 1.805455 -0.639821) (xy 1.809384 -0.707214) (xy 1.812070 -0.783618) (xy 1.813486 -0.865093) (xy 1.813606 -0.947702)
     (xy 1.812404 -1.027502) (xy 1.809854 -1.100555) (xy 1.805929 -1.162921) (xy 1.804266 -1.181100) (xy 1.787264 -1.316696) (xy 1.763773 -1.454833) (xy 1.734843 -1.590508) (xy 1.701525 -1.718721)
     (xy 1.670210 -1.819069) (xy 1.646077 -1.889771) (xy 1.520170 -1.768269) (xy 1.399883 -1.645574) (xy 1.294689 -1.523996) (xy 1.203011 -1.401685) (xy 1.185629 -1.376184) (xy 1.159690 -1.336610)
     (xy 1.133627 -1.295330) (xy 1.109075 -1.255107) (xy 1.087666 -1.218703) (xy 1.071033 -1.188881) (xy 1.060811 -1.168403) (xy 1.058334 -1.160850) (xy 1.065020 -1.154086) (xy 1.083114 -1.140474)
     (xy 1.109663 -1.122148) (xy 1.134480 -1.105861) (xy 1.179051 -1.075882) (xy 1.210376 -1.051175) (xy 1.230427 -1.029586) (xy 1.241172 -1.008956) (xy 1.244585 -0.987130) (xy 1.244600 -0.985358)
     (xy 1.236870 -0.953971) (xy 1.216533 -0.926114) (xy 1.187875 -0.906543) (xy 1.168400 -0.900746) (xy 1.152941 -0.899838) (xy 1.136818 -0.903172) (xy 1.116447 -0.912231) (xy 1.088243 -0.928499)
     (xy 1.062567 -0.944559) (xy 0.902031 -1.036598) (xy 0.733163 -1.114292) (xy 0.557354 -1.177157) (xy 0.375997 -1.224710) (xy 0.190484 -1.256468) (xy 0.150617 -1.261140) (xy 0.009526 -1.268529)
     (xy -0.138890 -1.261229) (xy -0.293773 -1.239375) (xy -0.454264 -1.203102) (xy -0.619503 -1.152544) (xy -0.681566 -1.130285) (xy -0.741946 -1.105802) (xy -0.810322 -1.074819) (xy -0.881543 -1.039920)
     (xy -0.950461 -1.003686) (xy -1.011926 -0.968701) (xy -1.045909 -0.947548) (xy -1.087072 -0.922092) (xy -1.118538 -0.906631) (xy -1.143586 -0.900277) (xy -1.165492 -0.902142) (xy -1.184828 -0.909905)
     (xy -1.212930 -0.933156) (xy -1.228067 -0.965231) (xy -1.228735 -1.002490) (xy -1.226712 -1.011311) (xy -1.220181 -1.026172) (xy -1.207626 -1.042001) (xy -1.187318 -1.060157) (xy -1.157532 -1.082001)
     (xy -1.116537 -1.108889) (xy -1.062609 -1.142182) (xy -1.052768 -1.148132) (xy -1.047104 -1.152965) (xy -1.045573 -1.160198) (xy -1.049180 -1.172318) (xy -1.058927 -1.191812) (xy -1.075818 -1.221168)
     (xy -1.095475 -1.253965) (xy -1.206799 -1.423879) (xy -1.326947 -1.579381) (xy -1.455983 -1.720549) (xy -1.529479 -1.790938) (xy -1.563261 -1.821414) (xy -1.592805 -1.847367) (xy -1.615813 -1.866835)
     (xy -1.629988 -1.877853) (xy -1.633212 -1.879600) (xy -1.638206 -1.872016) (xy -1.646675 -1.851454) (xy -1.657365 -1.821196) (xy -1.667304 -1.790175) (xy -1.723297 -1.585322) (xy -1.764061 -1.384003)
     (xy -1.790006 -1.183261) (xy -1.801541 -0.980139) (xy -1.801017 -0.825666) (xy -1.798613 -0.758235) (xy -1.795318 -0.693647) (xy -1.791329 -0.633999) (xy -1.786841 -0.581390) (xy -1.782048 -0.537918)
     (xy -1.777148 -0.505680) (xy -1.772334 -0.486777) (xy -1.769062 -0.482600) (xy -1.761415 -0.488742) (xy -1.745411 -0.505473) (xy -1.723382 -0.530245) (xy -1.697660 -0.560514) (xy -1.697325 -0.560917)
     (xy -1.670219 -0.592553) (xy -1.645338 -0.619922) (xy -1.625531 -0.639993) (xy -1.614051 -0.649516) (xy -1.582900 -0.659044) (xy -1.549178 -0.657019) (xy -1.524989 -0.646593) (xy -1.504789 -0.624808)
     (xy -1.490548 -0.595401) (xy -1.485327 -0.565728) (xy -1.486670 -0.554513) (xy -1.493057 -0.543830) (xy -1.509248 -0.521601) (xy -1.534128 -0.489225) (xy -1.566585 -0.448101) (xy -1.605507 -0.399627)
     (xy -1.649779 -0.345204) (xy -1.698290 -0.286229) (xy -1.740858 -0.234967) (xy -1.989755 0.063500) (xy -2.159156 0.063500) (xy -2.158973 0.043239) (xy -2.157153 0.023144) (xy -2.152542 0.004932)
     (xy -2.143948 -0.013713) (xy -2.130180 -0.035111) (xy -2.110048 -0.061580) (xy -2.082362 -0.095438) (xy -2.045930 -0.139002) (xy -2.022990 -0.166433) (xy -1.915899 -0.294767) (xy -1.931321 -0.373867)
     (xy -1.954841 -0.523331) (xy -1.969726 -0.683803) (xy -1.975982 -0.851725) (xy -1.973615 -1.023541) (xy -1.962628 -1.195695) (xy -1.943027 -1.364628) (xy -1.929819 -1.447800) (xy -1.916013 -1.519490)
     (xy -1.899006 -1.595608) (xy -1.879493 -1.673929) (xy -1.858168 -1.752228) (xy -1.835728 -1.828279) (xy -1.813286 -1.898549) (xy -1.384300 -1.898549) (xy -1.324860 -1.836158) (xy -1.226837 -1.729243)
     (xy -1.140312 -1.625711) (xy -1.061837 -1.520988) (xy -0.987963 -1.410496) (xy -0.922634 -1.302470) (xy -0.885008 -1.237574) (xy -0.855254 -1.250412) (xy -0.834197 -1.259138) (xy -0.802623 -1.271800)
     (xy -0.765832 -1.286283) (xy -0.747183 -1.293528) (xy -0.714108 -1.306802) (xy -0.687941 -1.318230) (xy -0.672066 -1.326281) (xy -0.672008 -1.326330) (xy 0.677629 -1.326330) (xy 0.785431 -1.282160)
     (xy 0.824929 -1.266034) (xy 0.858562 -1.252411) (xy 0.883355 -1.242489) (xy 0.896334 -1.237464) (xy 0.897467 -1.237093) (xy 0.903105 -1.243581) (xy 0.914055 -1.261528) (xy 0.928080 -1.287233)
     (xy 0.929908 -1.290749) (xy 0.975078 -1.370636) (xy 1.031125 -1.457590) (xy 1.095564 -1.548274) (xy 1.165912 -1.639351) (xy 1.239687 -1.727483) (xy 1.314404 -1.809331) (xy 1.320312 -1.815471)
     (xy 1.409700 -1.907976) (xy 1.341967 -1.871413) (xy 1.210756 -1.794770) (xy 1.084171 -1.709458) (xy 0.964980 -1.617671) (xy 0.855950 -1.521603) (xy 0.759850 -1.423449) (xy 0.722832 -1.380715)
     (xy 0.677629 -1.326330) (xy -0.672008 -1.326330) (xy -0.668866 -1.328978) (xy -0.674373 -1.338262) (xy -0.689374 -1.357190) (xy -0.711587 -1.383232) (xy -0.738733 -1.413861) (xy -0.768531 -1.446551)
     (xy -0.798700 -1.478773) (xy -0.826961 -1.508000) (xy -0.851033 -1.531704) (xy -0.855786 -1.536154) (xy -0.928371 -1.599579) (xy -1.009229 -1.663919) (xy -1.094408 -1.726377) (xy -1.179951 -1.784157)
     (xy -1.261904 -1.834461) (xy -1.329267 -1.871002) (xy -1.384300 -1.898549) (xy -1.813286 -1.898549) (xy -1.812867 -1.899858) (xy -1.790279 -1.964740) (xy -1.768661 -2.020700) (xy -1.748708 -2.065513)
     (xy -1.731113 -2.096954) (xy -1.724170 -2.106123) (xy -1.687709 -2.138544) (xy -1.646253 -2.157448) (xy -1.598385 -2.162968) (xy -1.542685 -2.155235) (xy -1.477734 -2.134381) (xy -1.466866 -2.130031)
     (xy -1.313399 -2.060319) (xy -1.163173 -1.978681) (xy -1.018511 -1.886804) (xy -0.881737 -1.786375) (xy -0.755172 -1.679079) (xy -0.641140 -1.566601) (xy -0.556777 -1.469399) (xy -0.530633 -1.437221)
     (xy -0.508025 -1.410187) (xy -0.491166 -1.390888) (xy -0.482272 -1.381914) (xy -0.481778 -1.381626) (xy -0.471052 -1.382151) (xy -0.447815 -1.385764) (xy -0.416064 -1.391795) (xy -0.396261 -1.395935)
     (xy -0.258927 -1.420659) (xy -0.122316 -1.435876) (xy 0.004234 -1.440894) (xy 0.076360 -1.439788) (xy 0.143308 -1.436172) (xy 0.210080 -1.429515) (xy 0.281677 -1.419287) (xy 0.363102 -1.404955)
     (xy 0.388587 -1.400087) (xy 0.435166 -1.391345) (xy 0.467791 -1.386045) (xy 0.489043 -1.383971) (xy 0.501500 -1.384905) (xy 0.507743 -1.388627) (xy 0.508626 -1.389953) (xy 0.519031 -1.405171)
     (xy 0.538185 -1.430167) (xy 0.563685 -1.461977) (xy 0.593126 -1.497640) (xy 0.624103 -1.534191) (xy 0.647700 -1.561316) (xy 0.715671 -1.632194) (xy 0.796553 -1.706120) (xy 0.887204 -1.780744)
     (xy 0.984484 -1.853721) (xy 1.085252 -1.922703) (xy 1.186367 -1.985343) (xy 1.284688 -2.039292) (xy 1.292606 -2.043296) (xy 1.346017 -2.069297) (xy 1.400767 -2.094490) (xy 1.453838 -2.117619)
     (xy 1.502212 -2.137424) (xy 1.542872 -2.152646) (xy 1.572802 -2.162027) (xy 1.581928 -2.164001) (xy 1.629264 -2.163512) )(layer F.SilkS) (width  0.010000)
  )
  (fp_poly (pts (xy 0.017597 0.298118) (xy 0.076401 0.299821) (xy 0.131627 0.303080) (xy 0.178657 0.307770) (xy 0.209688 0.313000) (xy 0.265633 0.332660) (xy 0.310812 0.362334) (xy 0.344255 0.399914)
     (xy 0.364987 0.443289) (xy 0.372036 0.490352) (xy 0.364431 0.538991) (xy 0.341198 0.587099) (xy 0.338132 0.591580) (xy 0.302113 0.634391) (xy 0.254544 0.678529) (xy 0.199988 0.720115)
     (xy 0.150702 0.751021) (xy 0.117123 0.771778) (xy 0.098767 0.789429) (xy 0.095021 0.806864) (xy 0.105274 0.826976) (xy 0.128911 0.852653) (xy 0.129117 0.852854) (xy 0.183171 0.896868)
     (xy 0.247355 0.935059) (xy 0.314976 0.963536) (xy 0.324874 0.966691) (xy 0.354682 0.974842) (xy 0.382096 0.979616) (xy 0.412573 0.981485) (xy 0.451575 0.980917) (xy 0.477274 0.979803)
     (xy 0.544886 0.974197) (xy 0.598008 0.964547) (xy 0.621509 0.957501) (xy 0.666969 0.944098) (xy 0.701720 0.940626) (xy 0.728817 0.947152) (xy 0.747721 0.960245) (xy 0.770692 0.990818)
     (xy 0.778330 1.023403) (xy 0.771583 1.055363) (xy 0.751403 1.084060) (xy 0.718737 1.106855) (xy 0.691231 1.117265) (xy 0.674514 1.122619) (xy 0.661804 1.129747) (xy 0.650503 1.141699)
     (xy 0.638011 1.161526) (xy 0.621727 1.192280) (xy 0.613472 1.208516) (xy 0.560692 1.294667) (xy 0.495701 1.369347) (xy 0.419194 1.432052) (xy 0.331861 1.482277) (xy 0.234397 1.519516)
     (xy 0.162239 1.537253) (xy 0.117290 1.543380) (xy 0.061313 1.547054) (xy -0.000272 1.548287) (xy -0.062046 1.547091) (xy -0.118591 1.543479) (xy -0.164488 1.537462) (xy -0.169333 1.536516)
     (xy -0.273221 1.507344) (xy -0.367215 1.464686) (xy -0.450810 1.408935) (xy -0.523497 1.340482) (xy -0.584771 1.259719) (xy -0.585230 1.258882) (xy -0.363762 1.258882) (xy -0.325599 1.286288)
     (xy -0.259472 1.324466) (xy -0.182446 1.353067) (xy -0.098043 1.371391) (xy -0.009785 1.378737) (xy 0.078805 1.374404) (xy 0.101600 1.371256) (xy 0.194821 1.349518) (xy 0.277333 1.315553)
     (xy 0.313993 1.294267) (xy 0.366528 1.260312) (xy 0.325081 1.230239) (xy 0.268534 1.194872) (xy 0.202624 1.162655) (xy 0.134613 1.136783) (xy 0.078637 1.121771) (xy 0.037493 1.114550)
     (xy 0.004514 1.112039) (xy -0.028316 1.113950) (xy -0.051249 1.117095) (xy -0.143668 1.139330) (xy -0.234460 1.176273) (xy -0.319018 1.225964) (xy -0.336398 1.238465) (xy -0.363762 1.258882)
     (xy -0.585230 1.258882) (xy -0.626982 1.182796) (xy -0.641957 1.152757) (xy -0.654775 1.134048) (xy -0.669476 1.122237) (xy -0.690097 1.112894) (xy -0.691021 1.112540) (xy -0.729514 1.091741)
     (xy -0.752879 1.064089) (xy -0.761850 1.028655) (xy -0.762000 1.022674) (xy -0.757931 0.994155) (xy -0.743109 0.970709) (xy -0.737251 0.964549) (xy -0.714094 0.947365) (xy -0.687102 0.940362)
     (xy -0.652998 0.943368) (xy -0.608508 0.956210) (xy -0.604575 0.957595) (xy -0.559407 0.969334) (xy -0.504092 0.977278) (xy -0.445071 0.981028) (xy -0.388788 0.980186) (xy -0.341684 0.974351)
     (xy -0.339991 0.973988) (xy -0.293584 0.960413) (xy -0.245905 0.940553) (xy -0.199781 0.916257) (xy -0.158037 0.889375) (xy -0.123498 0.861756) (xy -0.098989 0.835250) (xy -0.087337 0.811707)
     (xy -0.086849 0.808273) (xy -0.087011 0.796958) (xy -0.091111 0.786818) (xy -0.101475 0.775624) (xy -0.120426 0.761149) (xy -0.150290 0.741165) (xy -0.170473 0.728134) (xy -0.240306 0.678873)
     (xy -0.293745 0.631113) (xy -0.331198 0.584251) (xy -0.353072 0.537686) (xy -0.359777 0.490815) (xy -0.355234 0.455674) (xy -0.335975 0.407253) (xy -0.303392 0.367962) (xy -0.257075 0.337517)
     (xy -0.196614 0.315638) (xy -0.134116 0.303607) (xy -0.092279 0.299885) (xy -0.040169 0.298097) (xy 0.017597 0.298118) )(layer F.SilkS) (width  0.010000)
  )
  (fp_poly (pts (xy -0.943551 0.693125) (xy -0.919810 0.711814) (xy -0.900404 0.736936) (xy -0.889804 0.763560) (xy -0.889000 0.771970) (xy -0.896459 0.807489) (xy -0.916856 0.836242) (xy -0.932117 0.847086)
     (xy -0.944663 0.851264) (xy -0.970482 0.858142) (xy -1.006322 0.866987) (xy -1.048932 0.877065) (xy -1.095060 0.887643) (xy -1.141453 0.897986) (xy -1.184861 0.907361) (xy -1.222029 0.915034)
     (xy -1.249708 0.920270) (xy -1.264644 0.922336) (xy -1.265537 0.922330) (xy -1.279868 0.918939) (xy -1.292114 0.914569) (xy -1.321345 0.894660) (xy -1.339187 0.865864) (xy -1.344624 0.832654)
     (xy -1.336638 0.799502) (xy -1.322917 0.779159) (xy -1.313388 0.769890) (xy -1.301951 0.762119) (xy -1.286046 0.754997) (xy -1.263114 0.747676) (xy -1.230594 0.739307) (xy -1.185927 0.729044)
     (xy -1.143684 0.719759) (xy -1.093218 0.709002) (xy -1.047301 0.699647) (xy -1.008947 0.692276) (xy -0.981169 0.687468) (xy -0.967154 0.685800) (xy -0.943551 0.693125) )(layer F.SilkS) (width  0.010000)
  )
  (fp_poly (pts (xy 1.009155 0.693469) (xy 1.048671 0.699041) (xy 1.094609 0.706764) (xy 1.143632 0.715998) (xy 1.192401 0.726103) (xy 1.237580 0.736440) (xy 1.275829 0.746368) (xy 1.303811 0.755247)
     (xy 1.310685 0.758045) (xy 1.338357 0.778580) (xy 1.354234 0.807173) (xy 1.358109 0.839535) (xy 1.349778 0.871377) (xy 1.329035 0.898410) (xy 1.317811 0.906557) (xy 1.306339 0.913306)
     (xy 1.295682 0.917916) (xy 1.283355 0.920180) (xy 1.266874 0.919891) (xy 1.243752 0.916838) (xy 1.211507 0.910816) (xy 1.167651 0.901616) (xy 1.110519 0.889208) (xy 1.061522 0.878187)
     (xy 1.017176 0.867576) (xy 0.980606 0.858172) (xy 0.954936 0.850774) (xy 0.944234 0.846774) (xy 0.919349 0.825112) (xy 0.906318 0.796108) (xy 0.904638 0.763997) (xy 0.913805 0.733013)
     (xy 0.933315 0.707391) (xy 0.962663 0.691363) (xy 0.962744 0.691340) (xy 0.979400 0.690689) (xy 1.009155 0.693469) )(layer F.SilkS) (width  0.010000)
  )
  (fp_poly (pts (xy -1.248207 0.328083) (xy -1.217919 0.331614) (xy -1.176241 0.337539) (xy -1.120579 0.346021) (xy -1.117362 0.346519) (xy -1.064925 0.355125) (xy -1.017616 0.363829) (xy -0.978346 0.372025)
     (xy -0.950024 0.379104) (xy -0.935561 0.384459) (xy -0.935553 0.384464) (xy -0.914776 0.407112) (xy -0.902993 0.438130) (xy -0.902359 0.470397) (xy -0.905886 0.482486) (xy -0.916544 0.503882)
     (xy -0.929791 0.519691) (xy -0.947715 0.530210) (xy -0.972405 0.535732) (xy -1.005948 0.536555) (xy -1.050435 0.532973) (xy -1.107952 0.525283) (xy -1.155700 0.517836) (xy -1.204415 0.509562)
     (xy -1.248360 0.501315) (xy -1.284337 0.493757) (xy -1.309151 0.487548) (xy -1.318489 0.484187) (xy -1.343004 0.462161) (xy -1.355396 0.432898) (xy -1.355978 0.400650) (xy -1.345066 0.369670)
     (xy -1.322976 0.344210) (xy -1.307405 0.334671) (xy -1.296706 0.330241) (xy -1.285005 0.327559) (xy -1.269704 0.326785) (xy -1.248207 0.328083) )(layer F.SilkS) (width  0.010000)
  )
  (fp_poly (pts (xy 1.303100 0.327640) (xy 1.313966 0.331128) (xy 1.319935 0.333986) (xy 1.351044 0.357756) (xy 1.368228 0.387828) (xy 1.370740 0.421025) (xy 1.357836 0.454171) (xy 1.350458 0.464093)
     (xy 1.331595 0.481978) (xy 1.312772 0.493218) (xy 1.310242 0.494005) (xy 1.294248 0.497157) (xy 1.265496 0.502021) (xy 1.227405 0.508089) (xy 1.183397 0.514855) (xy 1.136892 0.521810)
     (xy 1.091311 0.528447) (xy 1.050076 0.534259) (xy 1.016606 0.538738) (xy 0.994324 0.541376) (xy 0.987637 0.541865) (xy 0.972622 0.536174) (xy 0.952606 0.521766) (xy 0.943187 0.513080)
     (xy 0.920638 0.481184) (xy 0.914113 0.447868) (xy 0.923838 0.415234) (xy 0.931466 0.403922) (xy 0.940948 0.393454) (xy 0.952674 0.384818) (xy 0.968934 0.377374) (xy 0.992016 0.370481)
     (xy 1.024209 0.363500) (xy 1.067801 0.355788) (xy 1.125082 0.346707) (xy 1.148999 0.343055) (xy 1.202269 0.335106) (xy 1.241570 0.329736) (xy 1.269646 0.326798) (xy 1.289241 0.326148)
     (xy 1.303100 0.327640) )(layer F.SilkS) (width  0.010000)
  )
  (fp_poly (pts (xy -0.924388 -0.167871) (xy -0.837745 -0.153330) (xy -0.759786 -0.126069) (xy -0.688528 -0.085353) (xy -0.621986 -0.030451) (xy -0.609355 -0.017993) (xy -0.581547 0.011649) (xy -0.557488 0.040003)
     (xy -0.540357 0.063175) (xy -0.534313 0.073919) (xy -0.527682 0.109471) (xy -0.535874 0.142519) (xy -0.556800 0.169705) (xy -0.588371 0.187666) (xy -0.607820 0.192182) (xy -0.644113 0.197050)
     (xy -0.707051 0.129649) (xy -0.763381 0.076552) (xy -0.820410 0.038626) (xy -0.881624 0.014337) (xy -0.950505 0.002154) (xy -1.001833 0.000000) (xy -1.044467 -0.003370) (xy -1.074558 -0.014604)
     (xy -1.095327 -0.035390) (xy -1.105024 -0.054025) (xy -1.111923 -0.089403) (xy -1.104020 -0.121705) (xy -1.083447 -0.147953) (xy -1.052336 -0.165169) (xy -1.021700 -0.170426) (xy -0.924388 -0.167871) )(layer F.SilkS) (width  0.010000)
  )
  (fp_poly (pts (xy 1.061388 -0.167873) (xy 1.085790 -0.163569) (xy 1.091148 -0.161429) (xy 1.115401 -0.139685) (xy 1.129528 -0.109048) (xy 1.132610 -0.074839) (xy 1.123726 -0.042379) (xy 1.114209 -0.028116)
     (xy 1.103904 -0.017374) (xy 1.092556 -0.010162) (xy 1.076361 -0.005449) (xy 1.051514 -0.002204) (xy 1.014211 0.000603) (xy 1.006259 0.001117) (xy 0.921240 0.012480) (xy 0.848501 0.035093)
     (xy 0.787393 0.069270) (xy 0.737266 0.115325) (xy 0.717244 0.141267) (xy 0.687146 0.174551) (xy 0.654551 0.191709) (xy 0.620377 0.192456) (xy 0.591194 0.180238) (xy 0.563269 0.155110)
     (xy 0.551259 0.124358) (xy 0.555166 0.088149) (xy 0.574992 0.046651) (xy 0.588843 0.026649) (xy 0.646234 -0.036116) (xy 0.715911 -0.089308) (xy 0.795117 -0.131130) (xy 0.871129 -0.157266)
     (xy 0.903180 -0.163386) (xy 0.942762 -0.167592) (xy 0.985344 -0.169799) (xy 1.026396 -0.169921) (xy 1.061388 -0.167873) )(layer F.SilkS) (width  0.010000)
  )
)
