EESchema Schematic File Version 4
EELAYER 30 0
EELAYER END
$Descr A4 11693 8268
encoding utf-8
Sheet 1 1
Title ""
Date ""
Rev ""
Comp ""
Comment1 ""
Comment2 ""
Comment3 ""
Comment4 ""
$EndDescr
$Comp
L Connector_Generic:Conn_02x14_Counter_Clockwise J2
U 1 1 5FCEE680
P 2650 4300
F 0 "J2" H 2700 5117 50  0000 C CNN
F 1 "Textool 228-3345" H 2700 5026 50  0000 C CNN
F 2 "Socket:DIP_Socket-28_W11.9_W12.7_W15.24_W17.78_W18.5_3M_228-1277-00-0602J" H 2650 4300 50  0001 C CNN
F 3 "~" H 2650 4300 50  0001 C CNN
	1    2650 4300
	1    0    0    -1  
$EndComp
Wire Wire Line
	2450 2050 2250 2050
Wire Wire Line
	2250 2050 2250 3700
Wire Wire Line
	2250 3700 2450 3700
Wire Wire Line
	2450 2150 2200 2150
Wire Wire Line
	2200 2150 2200 3800
Wire Wire Line
	2200 3800 2450 3800
Wire Wire Line
	2450 2250 2150 2250
Wire Wire Line
	2150 2250 2150 3900
Wire Wire Line
	2150 3900 2450 3900
Wire Wire Line
	2450 2350 2100 2350
Wire Wire Line
	2100 2350 2100 4000
Wire Wire Line
	2100 4000 2450 4000
Wire Wire Line
	2450 2450 2050 2450
Wire Wire Line
	2050 2450 2050 4100
Wire Wire Line
	2050 4100 2450 4100
Wire Wire Line
	2450 2550 2000 2550
Wire Wire Line
	2000 2550 2000 4200
Wire Wire Line
	2000 4200 2450 4200
Wire Wire Line
	2450 2650 1950 2650
Wire Wire Line
	1950 2650 1950 4300
Wire Wire Line
	1950 4300 2450 4300
Wire Wire Line
	2450 2750 1900 2750
Wire Wire Line
	1900 2750 1900 4400
Wire Wire Line
	1900 4400 2450 4400
Wire Wire Line
	2450 2850 1850 2850
Wire Wire Line
	1850 2850 1850 4500
Wire Wire Line
	1850 4500 2450 4500
Wire Wire Line
	2450 2950 1800 2950
Wire Wire Line
	1800 2950 1800 4600
Wire Wire Line
	1800 4600 2450 4600
Wire Wire Line
	2450 3050 1750 3050
Wire Wire Line
	1750 3050 1750 4700
Wire Wire Line
	1750 4700 2450 4700
Wire Wire Line
	2450 3150 1700 3150
Wire Wire Line
	1700 3150 1700 4800
Wire Wire Line
	1700 4800 2450 4800
Wire Wire Line
	2450 3250 1650 3250
Wire Wire Line
	1650 3250 1650 4900
Wire Wire Line
	1650 4900 2450 4900
Wire Wire Line
	2450 3350 1600 3350
Wire Wire Line
	1600 3350 1600 5000
Wire Wire Line
	1600 5000 2450 5000
Wire Wire Line
	2950 5000 3150 5000
Wire Wire Line
	3150 5000 3150 3350
Wire Wire Line
	3150 3350 2950 3350
Wire Wire Line
	2950 4900 3200 4900
Wire Wire Line
	3200 4900 3200 3250
Wire Wire Line
	3200 3250 2950 3250
Wire Wire Line
	2950 4800 3250 4800
Wire Wire Line
	3250 4800 3250 3150
Wire Wire Line
	3250 3150 2950 3150
Wire Wire Line
	2950 4700 3300 4700
Wire Wire Line
	3300 4700 3300 3050
Wire Wire Line
	3300 3050 2950 3050
Wire Wire Line
	2950 4600 3350 4600
Wire Wire Line
	3350 4600 3350 2950
Wire Wire Line
	3350 2950 2950 2950
Wire Wire Line
	2950 4500 3400 4500
Wire Wire Line
	3400 4500 3400 2850
Wire Wire Line
	3400 2850 2950 2850
Wire Wire Line
	2950 4400 3450 4400
Wire Wire Line
	3450 4400 3450 2750
Wire Wire Line
	3450 2750 2950 2750
Wire Wire Line
	2950 4300 3500 4300
Wire Wire Line
	3500 4300 3500 2650
Wire Wire Line
	3500 2650 2950 2650
Wire Wire Line
	2950 4200 3550 4200
Wire Wire Line
	3550 4200 3550 2550
Wire Wire Line
	3550 2550 2950 2550
Wire Wire Line
	2950 4100 3600 4100
Wire Wire Line
	3600 4100 3600 2450
Wire Wire Line
	3600 2450 2950 2450
Wire Wire Line
	2950 4000 3650 4000
Wire Wire Line
	3650 4000 3650 2350
Wire Wire Line
	3650 2350 2950 2350
Wire Wire Line
	2950 3900 3700 3900
Wire Wire Line
	3700 3900 3700 2250
Wire Wire Line
	3700 2250 2950 2250
Wire Wire Line
	2950 3800 3750 3800
Wire Wire Line
	3750 3800 3750 2150
Wire Wire Line
	3750 2150 2950 2150
Wire Wire Line
	2950 3700 3800 3700
Wire Wire Line
	3800 3700 3800 2050
Wire Wire Line
	3800 2050 2950 2050
$Comp
L Connector_Generic:Conn_02x14_Odd_Even J1
U 1 1 5FD2507C
P 2650 2650
F 0 "J1" H 2700 3467 50  0000 C CNN
F 1 "Flat Cable to DIP IDC" H 2700 3376 50  0000 C CNN
F 2 "Connector_PinHeader_2.54mm:PinHeader_2x14_P2.54mm_Vertical" H 2650 2650 50  0001 C CNN
F 3 "~" H 2650 2650 50  0001 C CNN
	1    2650 2650
	1    0    0    -1  
$EndComp
$EndSCHEMATC
