(kicad_pcb (version 20171130) (host pcbnew 5.1.7)

  (general
    (thickness 1.6)
    (drawings 10)
    (tracks 96)
    (zones 0)
    (modules 14)
    (nets 49)
  )

  (page A4)
  (layers
    (0 F.Cu signal)
    (31 B.Cu signal)
    (32 B.Adhes user)
    (33 F.Adhes user)
    (34 B.Paste user)
    (35 F.Paste user)
    (36 B.SilkS user)
    (37 F.SilkS user)
    (38 B.Mask user)
    (39 F.Mask user)
    (40 Dwgs.User user)
    (41 Cmts.User user)
    (42 Eco1.User user)
    (43 Eco2.User user)
    (44 Edge.Cuts user)
    (45 Margin user)
    (46 B.CrtYd user)
    (47 F.CrtYd user)
    (48 B.Fab user)
    (49 F.Fab user)
  )

  (setup
    (last_trace_width 0.25)
    (trace_clearance 0.2)
    (zone_clearance 0.508)
    (zone_45_only no)
    (trace_min 0.2)
    (via_size 0.8)
    (via_drill 0.4)
    (via_min_size 0.4)
    (via_min_drill 0.3)
    (uvia_size 0.3)
    (uvia_drill 0.1)
    (uvias_allowed no)
    (uvia_min_size 0.2)
    (uvia_min_drill 0.1)
    (edge_width 0.05)
    (segment_width 0.2)
    (pcb_text_width 0.3)
    (pcb_text_size 1.5 1.5)
    (mod_edge_width 0.12)
    (mod_text_size 1 1)
    (mod_text_width 0.15)
    (pad_size 1.524 1.524)
    (pad_drill 0.762)
    (pad_to_mask_clearance 0)
    (aux_axis_origin 0 0)
    (visible_elements FFFFFF7F)
    (pcbplotparams
      (layerselection 0x010fc_ffffffff)
      (usegerberextensions false)
      (usegerberattributes true)
      (usegerberadvancedattributes true)
      (creategerberjobfile true)
      (excludeedgelayer true)
      (linewidth 0.100000)
      (plotframeref false)
      (viasonmask false)
      (mode 1)
      (useauxorigin false)
      (hpglpennumber 1)
      (hpglpenspeed 20)
      (hpglpendiameter 15.000000)
      (psnegative false)
      (psa4output false)
      (plotreference true)
      (plotvalue true)
      (plotinvisibletext false)
      (padsonsilk false)
      (subtractmaskfromsilk false)
      (outputformat 1)
      (mirror false)
      (drillshape 0)
      (scaleselection 1)
      (outputdirectory "plot/"))
  )

  (net 0 "")
  (net 1 +5V)
  (net 2 GND)
  (net 3 /A0)
  (net 4 /D0)
  (net 5 /A1)
  (net 6 /D1)
  (net 7 /A2)
  (net 8 /D2)
  (net 9 /A3)
  (net 10 /D3)
  (net 11 /A4)
  (net 12 /D4)
  (net 13 /A5)
  (net 14 /D5)
  (net 15 /A6)
  (net 16 /D6)
  (net 17 /A7)
  (net 18 /D7)
  (net 19 /A8)
  (net 20 /~M1)
  (net 21 /A9)
  (net 22 /~MREQ)
  (net 23 /A10)
  (net 24 /~IORQ)
  (net 25 /A11)
  (net 26 /~RD)
  (net 27 /A12)
  (net 28 /~WR)
  (net 29 /A13)
  (net 30 /~RFSH)
  (net 31 /A14)
  (net 32 /~HALT)
  (net 33 /A15)
  (net 34 /~WAIT)
  (net 35 /IMEM)
  (net 36 /~INT)
  (net 37 /ICLK)
  (net 38 /~NMI)
  (net 39 /USR0)
  (net 40 /~RESET)
  (net 41 /USR1)
  (net 42 /~BUSRQ)
  (net 43 /USR2)
  (net 44 /~BUSACK)
  (net 45 /USR3)
  (net 46 /~CLK)
  (net 47 /IEI)
  (net 48 /IEO)

  (net_class Default "This is the default net class."
    (clearance 0.2)
    (trace_width 0.25)
    (via_dia 0.8)
    (via_drill 0.4)
    (uvia_dia 0.3)
    (uvia_drill 0.1)
    (add_net /A0)
    (add_net /A1)
    (add_net /A10)
    (add_net /A11)
    (add_net /A12)
    (add_net /A13)
    (add_net /A14)
    (add_net /A15)
    (add_net /A2)
    (add_net /A3)
    (add_net /A4)
    (add_net /A5)
    (add_net /A6)
    (add_net /A7)
    (add_net /A8)
    (add_net /A9)
    (add_net /D0)
    (add_net /D1)
    (add_net /D2)
    (add_net /D3)
    (add_net /D4)
    (add_net /D5)
    (add_net /D6)
    (add_net /D7)
    (add_net /ICLK)
    (add_net /IEI)
    (add_net /IEO)
    (add_net /IMEM)
    (add_net /USR0)
    (add_net /USR1)
    (add_net /USR2)
    (add_net /USR3)
    (add_net /~BUSACK)
    (add_net /~BUSRQ)
    (add_net /~CLK)
    (add_net /~HALT)
    (add_net /~INT)
    (add_net /~IORQ)
    (add_net /~M1)
    (add_net /~MREQ)
    (add_net /~NMI)
    (add_net /~RD)
    (add_net /~RESET)
    (add_net /~RFSH)
    (add_net /~WAIT)
    (add_net /~WR)
  )

  (net_class power ""
    (clearance 0.3)
    (trace_width 0.4)
    (via_dia 0.8)
    (via_drill 0.4)
    (uvia_dia 0.3)
    (uvia_drill 0.1)
    (add_net +5V)
    (add_net GND)
  )

  (module Connector_PinHeader_2.54mm:PinHeader_1x24_P2.54mm_Vertical (layer F.Cu) (tedit 5F92A12C) (tstamp 5F933B19)
    (at 55.88 38.1)
    (descr "Through hole straight pin header, 1x24, 2.54mm pitch, single row")
    (tags "Through hole pin header THT 1x24 2.54mm single row")
    (fp_text reference REF** (at 0 -2.33) (layer F.Fab) hide
      (effects (font (size 1 1) (thickness 0.15)))
    )
    (fp_text value PinHeader_1x24_P2.54mm_Vertical (at 0 60.75) (layer F.Fab)
      (effects (font (size 1 1) (thickness 0.15)))
    )
    (fp_line (start 1.8 -1.8) (end -1.8 -1.8) (layer F.CrtYd) (width 0.05))
    (fp_line (start 1.8 60.2) (end 1.8 -1.8) (layer F.CrtYd) (width 0.05))
    (fp_line (start -1.8 60.2) (end 1.8 60.2) (layer F.CrtYd) (width 0.05))
    (fp_line (start -1.8 -1.8) (end -1.8 60.2) (layer F.CrtYd) (width 0.05))
    (fp_line (start -1.27 -0.635) (end -0.635 -1.27) (layer F.Fab) (width 0.1))
    (fp_line (start -1.27 59.69) (end -1.27 -0.635) (layer F.Fab) (width 0.1))
    (fp_line (start 1.27 59.69) (end -1.27 59.69) (layer F.Fab) (width 0.1))
    (fp_line (start 1.27 -1.27) (end 1.27 59.69) (layer F.Fab) (width 0.1))
    (fp_line (start -0.635 -1.27) (end 1.27 -1.27) (layer F.Fab) (width 0.1))
    (fp_text user %R (at 0 29.21 90) (layer F.Fab)
      (effects (font (size 1 1) (thickness 0.15)))
    )
    (pad 1 thru_hole oval (at 0 0) (size 1.7 1.7) (drill 1) (layers *.Cu *.Mask))
    (pad 2 thru_hole oval (at 0 2.54) (size 1.7 1.7) (drill 1) (layers *.Cu *.Mask))
    (pad 3 thru_hole oval (at 0 5.08) (size 1.7 1.7) (drill 1) (layers *.Cu *.Mask))
    (pad 4 thru_hole oval (at 0 7.62) (size 1.7 1.7) (drill 1) (layers *.Cu *.Mask))
    (pad 5 thru_hole oval (at 0 10.16) (size 1.7 1.7) (drill 1) (layers *.Cu *.Mask))
    (pad 6 thru_hole oval (at 0 12.7) (size 1.7 1.7) (drill 1) (layers *.Cu *.Mask))
    (pad 7 thru_hole oval (at 0 15.24) (size 1.7 1.7) (drill 1) (layers *.Cu *.Mask))
    (pad 8 thru_hole oval (at 0 17.78) (size 1.7 1.7) (drill 1) (layers *.Cu *.Mask))
    (pad 9 thru_hole oval (at 0 20.32) (size 1.7 1.7) (drill 1) (layers *.Cu *.Mask))
    (pad 10 thru_hole oval (at 0 22.86) (size 1.7 1.7) (drill 1) (layers *.Cu *.Mask))
    (pad 11 thru_hole oval (at 0 25.4) (size 1.7 1.7) (drill 1) (layers *.Cu *.Mask))
    (pad 12 thru_hole oval (at 0 27.94) (size 1.7 1.7) (drill 1) (layers *.Cu *.Mask))
    (pad 13 thru_hole oval (at 0 30.48) (size 1.7 1.7) (drill 1) (layers *.Cu *.Mask))
    (pad 14 thru_hole oval (at 0 33.02) (size 1.7 1.7) (drill 1) (layers *.Cu *.Mask))
    (pad 15 thru_hole oval (at 0 35.56) (size 1.7 1.7) (drill 1) (layers *.Cu *.Mask))
    (pad 16 thru_hole oval (at 0 38.1) (size 1.7 1.7) (drill 1) (layers *.Cu *.Mask))
    (pad 17 thru_hole oval (at 0 40.64) (size 1.7 1.7) (drill 1) (layers *.Cu *.Mask))
    (pad 18 thru_hole oval (at 0 43.18) (size 1.7 1.7) (drill 1) (layers *.Cu *.Mask))
    (pad 19 thru_hole oval (at 0 45.72) (size 1.7 1.7) (drill 1) (layers *.Cu *.Mask))
    (pad 20 thru_hole oval (at 0 48.26) (size 1.7 1.7) (drill 1) (layers *.Cu *.Mask))
    (pad 21 thru_hole oval (at 0 50.8) (size 1.7 1.7) (drill 1) (layers *.Cu *.Mask))
    (pad 22 thru_hole oval (at 0 53.34) (size 1.7 1.7) (drill 1) (layers *.Cu *.Mask))
    (pad 23 thru_hole oval (at 0 55.88) (size 1.7 1.7) (drill 1) (layers *.Cu *.Mask))
    (pad 24 thru_hole oval (at 0 58.42) (size 1.7 1.7) (drill 1) (layers *.Cu *.Mask))
  )

  (module Connector_PinHeader_2.54mm:PinHeader_1x24_P2.54mm_Vertical (layer F.Cu) (tedit 5F92A12C) (tstamp 5F933ACF)
    (at 58.42 38.1)
    (descr "Through hole straight pin header, 1x24, 2.54mm pitch, single row")
    (tags "Through hole pin header THT 1x24 2.54mm single row")
    (fp_text reference REF** (at 0 -2.33) (layer F.Fab) hide
      (effects (font (size 1 1) (thickness 0.15)))
    )
    (fp_text value PinHeader_1x24_P2.54mm_Vertical (at 0 60.75) (layer F.Fab)
      (effects (font (size 1 1) (thickness 0.15)))
    )
    (fp_text user %R (at 0 29.21 90) (layer F.Fab)
      (effects (font (size 1 1) (thickness 0.15)))
    )
    (fp_line (start -0.635 -1.27) (end 1.27 -1.27) (layer F.Fab) (width 0.1))
    (fp_line (start 1.27 -1.27) (end 1.27 59.69) (layer F.Fab) (width 0.1))
    (fp_line (start 1.27 59.69) (end -1.27 59.69) (layer F.Fab) (width 0.1))
    (fp_line (start -1.27 59.69) (end -1.27 -0.635) (layer F.Fab) (width 0.1))
    (fp_line (start -1.27 -0.635) (end -0.635 -1.27) (layer F.Fab) (width 0.1))
    (fp_line (start -1.8 -1.8) (end -1.8 60.2) (layer F.CrtYd) (width 0.05))
    (fp_line (start -1.8 60.2) (end 1.8 60.2) (layer F.CrtYd) (width 0.05))
    (fp_line (start 1.8 60.2) (end 1.8 -1.8) (layer F.CrtYd) (width 0.05))
    (fp_line (start 1.8 -1.8) (end -1.8 -1.8) (layer F.CrtYd) (width 0.05))
    (pad 24 thru_hole oval (at 0 58.42) (size 1.7 1.7) (drill 1) (layers *.Cu *.Mask))
    (pad 23 thru_hole oval (at 0 55.88) (size 1.7 1.7) (drill 1) (layers *.Cu *.Mask))
    (pad 22 thru_hole oval (at 0 53.34) (size 1.7 1.7) (drill 1) (layers *.Cu *.Mask))
    (pad 21 thru_hole oval (at 0 50.8) (size 1.7 1.7) (drill 1) (layers *.Cu *.Mask))
    (pad 20 thru_hole oval (at 0 48.26) (size 1.7 1.7) (drill 1) (layers *.Cu *.Mask))
    (pad 19 thru_hole oval (at 0 45.72) (size 1.7 1.7) (drill 1) (layers *.Cu *.Mask))
    (pad 18 thru_hole oval (at 0 43.18) (size 1.7 1.7) (drill 1) (layers *.Cu *.Mask))
    (pad 17 thru_hole oval (at 0 40.64) (size 1.7 1.7) (drill 1) (layers *.Cu *.Mask))
    (pad 16 thru_hole oval (at 0 38.1) (size 1.7 1.7) (drill 1) (layers *.Cu *.Mask))
    (pad 15 thru_hole oval (at 0 35.56) (size 1.7 1.7) (drill 1) (layers *.Cu *.Mask))
    (pad 14 thru_hole oval (at 0 33.02) (size 1.7 1.7) (drill 1) (layers *.Cu *.Mask))
    (pad 13 thru_hole oval (at 0 30.48) (size 1.7 1.7) (drill 1) (layers *.Cu *.Mask))
    (pad 12 thru_hole oval (at 0 27.94) (size 1.7 1.7) (drill 1) (layers *.Cu *.Mask))
    (pad 11 thru_hole oval (at 0 25.4) (size 1.7 1.7) (drill 1) (layers *.Cu *.Mask))
    (pad 10 thru_hole oval (at 0 22.86) (size 1.7 1.7) (drill 1) (layers *.Cu *.Mask))
    (pad 9 thru_hole oval (at 0 20.32) (size 1.7 1.7) (drill 1) (layers *.Cu *.Mask))
    (pad 8 thru_hole oval (at 0 17.78) (size 1.7 1.7) (drill 1) (layers *.Cu *.Mask))
    (pad 7 thru_hole oval (at 0 15.24) (size 1.7 1.7) (drill 1) (layers *.Cu *.Mask))
    (pad 6 thru_hole oval (at 0 12.7) (size 1.7 1.7) (drill 1) (layers *.Cu *.Mask))
    (pad 5 thru_hole oval (at 0 10.16) (size 1.7 1.7) (drill 1) (layers *.Cu *.Mask))
    (pad 4 thru_hole oval (at 0 7.62) (size 1.7 1.7) (drill 1) (layers *.Cu *.Mask))
    (pad 3 thru_hole oval (at 0 5.08) (size 1.7 1.7) (drill 1) (layers *.Cu *.Mask))
    (pad 2 thru_hole oval (at 0 2.54) (size 1.7 1.7) (drill 1) (layers *.Cu *.Mask))
    (pad 1 thru_hole oval (at 0 0) (size 1.7 1.7) (drill 1) (layers *.Cu *.Mask))
  )

  (module Connector_PinHeader_2.54mm:PinHeader_1x24_P2.54mm_Vertical (layer F.Cu) (tedit 5F92A12C) (tstamp 5F933A85)
    (at 60.96 38.1)
    (descr "Through hole straight pin header, 1x24, 2.54mm pitch, single row")
    (tags "Through hole pin header THT 1x24 2.54mm single row")
    (fp_text reference REF** (at 0 -2.33) (layer F.Fab) hide
      (effects (font (size 1 1) (thickness 0.15)))
    )
    (fp_text value PinHeader_1x24_P2.54mm_Vertical (at 0 60.75) (layer F.Fab)
      (effects (font (size 1 1) (thickness 0.15)))
    )
    (fp_line (start 1.8 -1.8) (end -1.8 -1.8) (layer F.CrtYd) (width 0.05))
    (fp_line (start 1.8 60.2) (end 1.8 -1.8) (layer F.CrtYd) (width 0.05))
    (fp_line (start -1.8 60.2) (end 1.8 60.2) (layer F.CrtYd) (width 0.05))
    (fp_line (start -1.8 -1.8) (end -1.8 60.2) (layer F.CrtYd) (width 0.05))
    (fp_line (start -1.27 -0.635) (end -0.635 -1.27) (layer F.Fab) (width 0.1))
    (fp_line (start -1.27 59.69) (end -1.27 -0.635) (layer F.Fab) (width 0.1))
    (fp_line (start 1.27 59.69) (end -1.27 59.69) (layer F.Fab) (width 0.1))
    (fp_line (start 1.27 -1.27) (end 1.27 59.69) (layer F.Fab) (width 0.1))
    (fp_line (start -0.635 -1.27) (end 1.27 -1.27) (layer F.Fab) (width 0.1))
    (fp_text user %R (at 0 29.21 90) (layer F.Fab)
      (effects (font (size 1 1) (thickness 0.15)))
    )
    (pad 1 thru_hole oval (at 0 0) (size 1.7 1.7) (drill 1) (layers *.Cu *.Mask))
    (pad 2 thru_hole oval (at 0 2.54) (size 1.7 1.7) (drill 1) (layers *.Cu *.Mask))
    (pad 3 thru_hole oval (at 0 5.08) (size 1.7 1.7) (drill 1) (layers *.Cu *.Mask))
    (pad 4 thru_hole oval (at 0 7.62) (size 1.7 1.7) (drill 1) (layers *.Cu *.Mask))
    (pad 5 thru_hole oval (at 0 10.16) (size 1.7 1.7) (drill 1) (layers *.Cu *.Mask))
    (pad 6 thru_hole oval (at 0 12.7) (size 1.7 1.7) (drill 1) (layers *.Cu *.Mask))
    (pad 7 thru_hole oval (at 0 15.24) (size 1.7 1.7) (drill 1) (layers *.Cu *.Mask))
    (pad 8 thru_hole oval (at 0 17.78) (size 1.7 1.7) (drill 1) (layers *.Cu *.Mask))
    (pad 9 thru_hole oval (at 0 20.32) (size 1.7 1.7) (drill 1) (layers *.Cu *.Mask))
    (pad 10 thru_hole oval (at 0 22.86) (size 1.7 1.7) (drill 1) (layers *.Cu *.Mask))
    (pad 11 thru_hole oval (at 0 25.4) (size 1.7 1.7) (drill 1) (layers *.Cu *.Mask))
    (pad 12 thru_hole oval (at 0 27.94) (size 1.7 1.7) (drill 1) (layers *.Cu *.Mask))
    (pad 13 thru_hole oval (at 0 30.48) (size 1.7 1.7) (drill 1) (layers *.Cu *.Mask))
    (pad 14 thru_hole oval (at 0 33.02) (size 1.7 1.7) (drill 1) (layers *.Cu *.Mask))
    (pad 15 thru_hole oval (at 0 35.56) (size 1.7 1.7) (drill 1) (layers *.Cu *.Mask))
    (pad 16 thru_hole oval (at 0 38.1) (size 1.7 1.7) (drill 1) (layers *.Cu *.Mask))
    (pad 17 thru_hole oval (at 0 40.64) (size 1.7 1.7) (drill 1) (layers *.Cu *.Mask))
    (pad 18 thru_hole oval (at 0 43.18) (size 1.7 1.7) (drill 1) (layers *.Cu *.Mask))
    (pad 19 thru_hole oval (at 0 45.72) (size 1.7 1.7) (drill 1) (layers *.Cu *.Mask))
    (pad 20 thru_hole oval (at 0 48.26) (size 1.7 1.7) (drill 1) (layers *.Cu *.Mask))
    (pad 21 thru_hole oval (at 0 50.8) (size 1.7 1.7) (drill 1) (layers *.Cu *.Mask))
    (pad 22 thru_hole oval (at 0 53.34) (size 1.7 1.7) (drill 1) (layers *.Cu *.Mask))
    (pad 23 thru_hole oval (at 0 55.88) (size 1.7 1.7) (drill 1) (layers *.Cu *.Mask))
    (pad 24 thru_hole oval (at 0 58.42) (size 1.7 1.7) (drill 1) (layers *.Cu *.Mask))
  )

  (module Connector_PinHeader_2.54mm:PinHeader_1x24_P2.54mm_Vertical (layer F.Cu) (tedit 5F92A12C) (tstamp 5F933A3B)
    (at 63.5 38.1)
    (descr "Through hole straight pin header, 1x24, 2.54mm pitch, single row")
    (tags "Through hole pin header THT 1x24 2.54mm single row")
    (fp_text reference REF** (at 0 -2.33) (layer F.Fab) hide
      (effects (font (size 1 1) (thickness 0.15)))
    )
    (fp_text value PinHeader_1x24_P2.54mm_Vertical (at 0 60.75) (layer F.Fab)
      (effects (font (size 1 1) (thickness 0.15)))
    )
    (fp_text user %R (at 0 29.21 90) (layer F.Fab)
      (effects (font (size 1 1) (thickness 0.15)))
    )
    (fp_line (start -0.635 -1.27) (end 1.27 -1.27) (layer F.Fab) (width 0.1))
    (fp_line (start 1.27 -1.27) (end 1.27 59.69) (layer F.Fab) (width 0.1))
    (fp_line (start 1.27 59.69) (end -1.27 59.69) (layer F.Fab) (width 0.1))
    (fp_line (start -1.27 59.69) (end -1.27 -0.635) (layer F.Fab) (width 0.1))
    (fp_line (start -1.27 -0.635) (end -0.635 -1.27) (layer F.Fab) (width 0.1))
    (fp_line (start -1.8 -1.8) (end -1.8 60.2) (layer F.CrtYd) (width 0.05))
    (fp_line (start -1.8 60.2) (end 1.8 60.2) (layer F.CrtYd) (width 0.05))
    (fp_line (start 1.8 60.2) (end 1.8 -1.8) (layer F.CrtYd) (width 0.05))
    (fp_line (start 1.8 -1.8) (end -1.8 -1.8) (layer F.CrtYd) (width 0.05))
    (pad 24 thru_hole oval (at 0 58.42) (size 1.7 1.7) (drill 1) (layers *.Cu *.Mask))
    (pad 23 thru_hole oval (at 0 55.88) (size 1.7 1.7) (drill 1) (layers *.Cu *.Mask))
    (pad 22 thru_hole oval (at 0 53.34) (size 1.7 1.7) (drill 1) (layers *.Cu *.Mask))
    (pad 21 thru_hole oval (at 0 50.8) (size 1.7 1.7) (drill 1) (layers *.Cu *.Mask))
    (pad 20 thru_hole oval (at 0 48.26) (size 1.7 1.7) (drill 1) (layers *.Cu *.Mask))
    (pad 19 thru_hole oval (at 0 45.72) (size 1.7 1.7) (drill 1) (layers *.Cu *.Mask))
    (pad 18 thru_hole oval (at 0 43.18) (size 1.7 1.7) (drill 1) (layers *.Cu *.Mask))
    (pad 17 thru_hole oval (at 0 40.64) (size 1.7 1.7) (drill 1) (layers *.Cu *.Mask))
    (pad 16 thru_hole oval (at 0 38.1) (size 1.7 1.7) (drill 1) (layers *.Cu *.Mask))
    (pad 15 thru_hole oval (at 0 35.56) (size 1.7 1.7) (drill 1) (layers *.Cu *.Mask))
    (pad 14 thru_hole oval (at 0 33.02) (size 1.7 1.7) (drill 1) (layers *.Cu *.Mask))
    (pad 13 thru_hole oval (at 0 30.48) (size 1.7 1.7) (drill 1) (layers *.Cu *.Mask))
    (pad 12 thru_hole oval (at 0 27.94) (size 1.7 1.7) (drill 1) (layers *.Cu *.Mask))
    (pad 11 thru_hole oval (at 0 25.4) (size 1.7 1.7) (drill 1) (layers *.Cu *.Mask))
    (pad 10 thru_hole oval (at 0 22.86) (size 1.7 1.7) (drill 1) (layers *.Cu *.Mask))
    (pad 9 thru_hole oval (at 0 20.32) (size 1.7 1.7) (drill 1) (layers *.Cu *.Mask))
    (pad 8 thru_hole oval (at 0 17.78) (size 1.7 1.7) (drill 1) (layers *.Cu *.Mask))
    (pad 7 thru_hole oval (at 0 15.24) (size 1.7 1.7) (drill 1) (layers *.Cu *.Mask))
    (pad 6 thru_hole oval (at 0 12.7) (size 1.7 1.7) (drill 1) (layers *.Cu *.Mask))
    (pad 5 thru_hole oval (at 0 10.16) (size 1.7 1.7) (drill 1) (layers *.Cu *.Mask))
    (pad 4 thru_hole oval (at 0 7.62) (size 1.7 1.7) (drill 1) (layers *.Cu *.Mask))
    (pad 3 thru_hole oval (at 0 5.08) (size 1.7 1.7) (drill 1) (layers *.Cu *.Mask))
    (pad 2 thru_hole oval (at 0 2.54) (size 1.7 1.7) (drill 1) (layers *.Cu *.Mask))
    (pad 1 thru_hole oval (at 0 0) (size 1.7 1.7) (drill 1) (layers *.Cu *.Mask))
  )

  (module Connector_PinHeader_2.54mm:PinHeader_1x24_P2.54mm_Vertical (layer F.Cu) (tedit 5F92A12C) (tstamp 5F9339F1)
    (at 66.04 38.1)
    (descr "Through hole straight pin header, 1x24, 2.54mm pitch, single row")
    (tags "Through hole pin header THT 1x24 2.54mm single row")
    (fp_text reference REF** (at 0 -2.33) (layer F.Fab) hide
      (effects (font (size 1 1) (thickness 0.15)))
    )
    (fp_text value PinHeader_1x24_P2.54mm_Vertical (at 0 60.75) (layer F.Fab)
      (effects (font (size 1 1) (thickness 0.15)))
    )
    (fp_line (start 1.8 -1.8) (end -1.8 -1.8) (layer F.CrtYd) (width 0.05))
    (fp_line (start 1.8 60.2) (end 1.8 -1.8) (layer F.CrtYd) (width 0.05))
    (fp_line (start -1.8 60.2) (end 1.8 60.2) (layer F.CrtYd) (width 0.05))
    (fp_line (start -1.8 -1.8) (end -1.8 60.2) (layer F.CrtYd) (width 0.05))
    (fp_line (start -1.27 -0.635) (end -0.635 -1.27) (layer F.Fab) (width 0.1))
    (fp_line (start -1.27 59.69) (end -1.27 -0.635) (layer F.Fab) (width 0.1))
    (fp_line (start 1.27 59.69) (end -1.27 59.69) (layer F.Fab) (width 0.1))
    (fp_line (start 1.27 -1.27) (end 1.27 59.69) (layer F.Fab) (width 0.1))
    (fp_line (start -0.635 -1.27) (end 1.27 -1.27) (layer F.Fab) (width 0.1))
    (fp_text user %R (at 0 29.21 90) (layer F.Fab)
      (effects (font (size 1 1) (thickness 0.15)))
    )
    (pad 1 thru_hole oval (at 0 0) (size 1.7 1.7) (drill 1) (layers *.Cu *.Mask))
    (pad 2 thru_hole oval (at 0 2.54) (size 1.7 1.7) (drill 1) (layers *.Cu *.Mask))
    (pad 3 thru_hole oval (at 0 5.08) (size 1.7 1.7) (drill 1) (layers *.Cu *.Mask))
    (pad 4 thru_hole oval (at 0 7.62) (size 1.7 1.7) (drill 1) (layers *.Cu *.Mask))
    (pad 5 thru_hole oval (at 0 10.16) (size 1.7 1.7) (drill 1) (layers *.Cu *.Mask))
    (pad 6 thru_hole oval (at 0 12.7) (size 1.7 1.7) (drill 1) (layers *.Cu *.Mask))
    (pad 7 thru_hole oval (at 0 15.24) (size 1.7 1.7) (drill 1) (layers *.Cu *.Mask))
    (pad 8 thru_hole oval (at 0 17.78) (size 1.7 1.7) (drill 1) (layers *.Cu *.Mask))
    (pad 9 thru_hole oval (at 0 20.32) (size 1.7 1.7) (drill 1) (layers *.Cu *.Mask))
    (pad 10 thru_hole oval (at 0 22.86) (size 1.7 1.7) (drill 1) (layers *.Cu *.Mask))
    (pad 11 thru_hole oval (at 0 25.4) (size 1.7 1.7) (drill 1) (layers *.Cu *.Mask))
    (pad 12 thru_hole oval (at 0 27.94) (size 1.7 1.7) (drill 1) (layers *.Cu *.Mask))
    (pad 13 thru_hole oval (at 0 30.48) (size 1.7 1.7) (drill 1) (layers *.Cu *.Mask))
    (pad 14 thru_hole oval (at 0 33.02) (size 1.7 1.7) (drill 1) (layers *.Cu *.Mask))
    (pad 15 thru_hole oval (at 0 35.56) (size 1.7 1.7) (drill 1) (layers *.Cu *.Mask))
    (pad 16 thru_hole oval (at 0 38.1) (size 1.7 1.7) (drill 1) (layers *.Cu *.Mask))
    (pad 17 thru_hole oval (at 0 40.64) (size 1.7 1.7) (drill 1) (layers *.Cu *.Mask))
    (pad 18 thru_hole oval (at 0 43.18) (size 1.7 1.7) (drill 1) (layers *.Cu *.Mask))
    (pad 19 thru_hole oval (at 0 45.72) (size 1.7 1.7) (drill 1) (layers *.Cu *.Mask))
    (pad 20 thru_hole oval (at 0 48.26) (size 1.7 1.7) (drill 1) (layers *.Cu *.Mask))
    (pad 21 thru_hole oval (at 0 50.8) (size 1.7 1.7) (drill 1) (layers *.Cu *.Mask))
    (pad 22 thru_hole oval (at 0 53.34) (size 1.7 1.7) (drill 1) (layers *.Cu *.Mask))
    (pad 23 thru_hole oval (at 0 55.88) (size 1.7 1.7) (drill 1) (layers *.Cu *.Mask))
    (pad 24 thru_hole oval (at 0 58.42) (size 1.7 1.7) (drill 1) (layers *.Cu *.Mask))
  )

  (module Connector_PinHeader_2.54mm:PinHeader_1x24_P2.54mm_Vertical (layer F.Cu) (tedit 5F92A12C) (tstamp 5F9339A7)
    (at 68.58 38.1)
    (descr "Through hole straight pin header, 1x24, 2.54mm pitch, single row")
    (tags "Through hole pin header THT 1x24 2.54mm single row")
    (fp_text reference REF** (at 0 -2.33) (layer F.Fab) hide
      (effects (font (size 1 1) (thickness 0.15)))
    )
    (fp_text value PinHeader_1x24_P2.54mm_Vertical (at 0 60.75) (layer F.Fab)
      (effects (font (size 1 1) (thickness 0.15)))
    )
    (fp_text user %R (at 0 29.21 90) (layer F.Fab)
      (effects (font (size 1 1) (thickness 0.15)))
    )
    (fp_line (start -0.635 -1.27) (end 1.27 -1.27) (layer F.Fab) (width 0.1))
    (fp_line (start 1.27 -1.27) (end 1.27 59.69) (layer F.Fab) (width 0.1))
    (fp_line (start 1.27 59.69) (end -1.27 59.69) (layer F.Fab) (width 0.1))
    (fp_line (start -1.27 59.69) (end -1.27 -0.635) (layer F.Fab) (width 0.1))
    (fp_line (start -1.27 -0.635) (end -0.635 -1.27) (layer F.Fab) (width 0.1))
    (fp_line (start -1.8 -1.8) (end -1.8 60.2) (layer F.CrtYd) (width 0.05))
    (fp_line (start -1.8 60.2) (end 1.8 60.2) (layer F.CrtYd) (width 0.05))
    (fp_line (start 1.8 60.2) (end 1.8 -1.8) (layer F.CrtYd) (width 0.05))
    (fp_line (start 1.8 -1.8) (end -1.8 -1.8) (layer F.CrtYd) (width 0.05))
    (pad 24 thru_hole oval (at 0 58.42) (size 1.7 1.7) (drill 1) (layers *.Cu *.Mask))
    (pad 23 thru_hole oval (at 0 55.88) (size 1.7 1.7) (drill 1) (layers *.Cu *.Mask))
    (pad 22 thru_hole oval (at 0 53.34) (size 1.7 1.7) (drill 1) (layers *.Cu *.Mask))
    (pad 21 thru_hole oval (at 0 50.8) (size 1.7 1.7) (drill 1) (layers *.Cu *.Mask))
    (pad 20 thru_hole oval (at 0 48.26) (size 1.7 1.7) (drill 1) (layers *.Cu *.Mask))
    (pad 19 thru_hole oval (at 0 45.72) (size 1.7 1.7) (drill 1) (layers *.Cu *.Mask))
    (pad 18 thru_hole oval (at 0 43.18) (size 1.7 1.7) (drill 1) (layers *.Cu *.Mask))
    (pad 17 thru_hole oval (at 0 40.64) (size 1.7 1.7) (drill 1) (layers *.Cu *.Mask))
    (pad 16 thru_hole oval (at 0 38.1) (size 1.7 1.7) (drill 1) (layers *.Cu *.Mask))
    (pad 15 thru_hole oval (at 0 35.56) (size 1.7 1.7) (drill 1) (layers *.Cu *.Mask))
    (pad 14 thru_hole oval (at 0 33.02) (size 1.7 1.7) (drill 1) (layers *.Cu *.Mask))
    (pad 13 thru_hole oval (at 0 30.48) (size 1.7 1.7) (drill 1) (layers *.Cu *.Mask))
    (pad 12 thru_hole oval (at 0 27.94) (size 1.7 1.7) (drill 1) (layers *.Cu *.Mask))
    (pad 11 thru_hole oval (at 0 25.4) (size 1.7 1.7) (drill 1) (layers *.Cu *.Mask))
    (pad 10 thru_hole oval (at 0 22.86) (size 1.7 1.7) (drill 1) (layers *.Cu *.Mask))
    (pad 9 thru_hole oval (at 0 20.32) (size 1.7 1.7) (drill 1) (layers *.Cu *.Mask))
    (pad 8 thru_hole oval (at 0 17.78) (size 1.7 1.7) (drill 1) (layers *.Cu *.Mask))
    (pad 7 thru_hole oval (at 0 15.24) (size 1.7 1.7) (drill 1) (layers *.Cu *.Mask))
    (pad 6 thru_hole oval (at 0 12.7) (size 1.7 1.7) (drill 1) (layers *.Cu *.Mask))
    (pad 5 thru_hole oval (at 0 10.16) (size 1.7 1.7) (drill 1) (layers *.Cu *.Mask))
    (pad 4 thru_hole oval (at 0 7.62) (size 1.7 1.7) (drill 1) (layers *.Cu *.Mask))
    (pad 3 thru_hole oval (at 0 5.08) (size 1.7 1.7) (drill 1) (layers *.Cu *.Mask))
    (pad 2 thru_hole oval (at 0 2.54) (size 1.7 1.7) (drill 1) (layers *.Cu *.Mask))
    (pad 1 thru_hole oval (at 0 0) (size 1.7 1.7) (drill 1) (layers *.Cu *.Mask))
  )

  (module Connector_PinHeader_2.54mm:PinHeader_1x24_P2.54mm_Vertical (layer F.Cu) (tedit 5F92A12C) (tstamp 5F93395D)
    (at 71.12 38.1)
    (descr "Through hole straight pin header, 1x24, 2.54mm pitch, single row")
    (tags "Through hole pin header THT 1x24 2.54mm single row")
    (fp_text reference REF** (at 0 -2.33) (layer F.Fab) hide
      (effects (font (size 1 1) (thickness 0.15)))
    )
    (fp_text value PinHeader_1x24_P2.54mm_Vertical (at 0 60.75) (layer F.Fab)
      (effects (font (size 1 1) (thickness 0.15)))
    )
    (fp_line (start 1.8 -1.8) (end -1.8 -1.8) (layer F.CrtYd) (width 0.05))
    (fp_line (start 1.8 60.2) (end 1.8 -1.8) (layer F.CrtYd) (width 0.05))
    (fp_line (start -1.8 60.2) (end 1.8 60.2) (layer F.CrtYd) (width 0.05))
    (fp_line (start -1.8 -1.8) (end -1.8 60.2) (layer F.CrtYd) (width 0.05))
    (fp_line (start -1.27 -0.635) (end -0.635 -1.27) (layer F.Fab) (width 0.1))
    (fp_line (start -1.27 59.69) (end -1.27 -0.635) (layer F.Fab) (width 0.1))
    (fp_line (start 1.27 59.69) (end -1.27 59.69) (layer F.Fab) (width 0.1))
    (fp_line (start 1.27 -1.27) (end 1.27 59.69) (layer F.Fab) (width 0.1))
    (fp_line (start -0.635 -1.27) (end 1.27 -1.27) (layer F.Fab) (width 0.1))
    (fp_text user %R (at 0 29.21 90) (layer F.Fab)
      (effects (font (size 1 1) (thickness 0.15)))
    )
    (pad 1 thru_hole oval (at 0 0) (size 1.7 1.7) (drill 1) (layers *.Cu *.Mask))
    (pad 2 thru_hole oval (at 0 2.54) (size 1.7 1.7) (drill 1) (layers *.Cu *.Mask))
    (pad 3 thru_hole oval (at 0 5.08) (size 1.7 1.7) (drill 1) (layers *.Cu *.Mask))
    (pad 4 thru_hole oval (at 0 7.62) (size 1.7 1.7) (drill 1) (layers *.Cu *.Mask))
    (pad 5 thru_hole oval (at 0 10.16) (size 1.7 1.7) (drill 1) (layers *.Cu *.Mask))
    (pad 6 thru_hole oval (at 0 12.7) (size 1.7 1.7) (drill 1) (layers *.Cu *.Mask))
    (pad 7 thru_hole oval (at 0 15.24) (size 1.7 1.7) (drill 1) (layers *.Cu *.Mask))
    (pad 8 thru_hole oval (at 0 17.78) (size 1.7 1.7) (drill 1) (layers *.Cu *.Mask))
    (pad 9 thru_hole oval (at 0 20.32) (size 1.7 1.7) (drill 1) (layers *.Cu *.Mask))
    (pad 10 thru_hole oval (at 0 22.86) (size 1.7 1.7) (drill 1) (layers *.Cu *.Mask))
    (pad 11 thru_hole oval (at 0 25.4) (size 1.7 1.7) (drill 1) (layers *.Cu *.Mask))
    (pad 12 thru_hole oval (at 0 27.94) (size 1.7 1.7) (drill 1) (layers *.Cu *.Mask))
    (pad 13 thru_hole oval (at 0 30.48) (size 1.7 1.7) (drill 1) (layers *.Cu *.Mask))
    (pad 14 thru_hole oval (at 0 33.02) (size 1.7 1.7) (drill 1) (layers *.Cu *.Mask))
    (pad 15 thru_hole oval (at 0 35.56) (size 1.7 1.7) (drill 1) (layers *.Cu *.Mask))
    (pad 16 thru_hole oval (at 0 38.1) (size 1.7 1.7) (drill 1) (layers *.Cu *.Mask))
    (pad 17 thru_hole oval (at 0 40.64) (size 1.7 1.7) (drill 1) (layers *.Cu *.Mask))
    (pad 18 thru_hole oval (at 0 43.18) (size 1.7 1.7) (drill 1) (layers *.Cu *.Mask))
    (pad 19 thru_hole oval (at 0 45.72) (size 1.7 1.7) (drill 1) (layers *.Cu *.Mask))
    (pad 20 thru_hole oval (at 0 48.26) (size 1.7 1.7) (drill 1) (layers *.Cu *.Mask))
    (pad 21 thru_hole oval (at 0 50.8) (size 1.7 1.7) (drill 1) (layers *.Cu *.Mask))
    (pad 22 thru_hole oval (at 0 53.34) (size 1.7 1.7) (drill 1) (layers *.Cu *.Mask))
    (pad 23 thru_hole oval (at 0 55.88) (size 1.7 1.7) (drill 1) (layers *.Cu *.Mask))
    (pad 24 thru_hole oval (at 0 58.42) (size 1.7 1.7) (drill 1) (layers *.Cu *.Mask))
  )

  (module Connector_PinHeader_2.54mm:PinHeader_1x24_P2.54mm_Vertical (layer F.Cu) (tedit 5F92A12C) (tstamp 5F933913)
    (at 73.66 38.1)
    (descr "Through hole straight pin header, 1x24, 2.54mm pitch, single row")
    (tags "Through hole pin header THT 1x24 2.54mm single row")
    (fp_text reference REF** (at 0 -2.33) (layer F.Fab) hide
      (effects (font (size 1 1) (thickness 0.15)))
    )
    (fp_text value PinHeader_1x24_P2.54mm_Vertical (at 0 60.75) (layer F.Fab)
      (effects (font (size 1 1) (thickness 0.15)))
    )
    (fp_text user %R (at 0 29.21 90) (layer F.Fab)
      (effects (font (size 1 1) (thickness 0.15)))
    )
    (fp_line (start -0.635 -1.27) (end 1.27 -1.27) (layer F.Fab) (width 0.1))
    (fp_line (start 1.27 -1.27) (end 1.27 59.69) (layer F.Fab) (width 0.1))
    (fp_line (start 1.27 59.69) (end -1.27 59.69) (layer F.Fab) (width 0.1))
    (fp_line (start -1.27 59.69) (end -1.27 -0.635) (layer F.Fab) (width 0.1))
    (fp_line (start -1.27 -0.635) (end -0.635 -1.27) (layer F.Fab) (width 0.1))
    (fp_line (start -1.8 -1.8) (end -1.8 60.2) (layer F.CrtYd) (width 0.05))
    (fp_line (start -1.8 60.2) (end 1.8 60.2) (layer F.CrtYd) (width 0.05))
    (fp_line (start 1.8 60.2) (end 1.8 -1.8) (layer F.CrtYd) (width 0.05))
    (fp_line (start 1.8 -1.8) (end -1.8 -1.8) (layer F.CrtYd) (width 0.05))
    (pad 24 thru_hole oval (at 0 58.42) (size 1.7 1.7) (drill 1) (layers *.Cu *.Mask))
    (pad 23 thru_hole oval (at 0 55.88) (size 1.7 1.7) (drill 1) (layers *.Cu *.Mask))
    (pad 22 thru_hole oval (at 0 53.34) (size 1.7 1.7) (drill 1) (layers *.Cu *.Mask))
    (pad 21 thru_hole oval (at 0 50.8) (size 1.7 1.7) (drill 1) (layers *.Cu *.Mask))
    (pad 20 thru_hole oval (at 0 48.26) (size 1.7 1.7) (drill 1) (layers *.Cu *.Mask))
    (pad 19 thru_hole oval (at 0 45.72) (size 1.7 1.7) (drill 1) (layers *.Cu *.Mask))
    (pad 18 thru_hole oval (at 0 43.18) (size 1.7 1.7) (drill 1) (layers *.Cu *.Mask))
    (pad 17 thru_hole oval (at 0 40.64) (size 1.7 1.7) (drill 1) (layers *.Cu *.Mask))
    (pad 16 thru_hole oval (at 0 38.1) (size 1.7 1.7) (drill 1) (layers *.Cu *.Mask))
    (pad 15 thru_hole oval (at 0 35.56) (size 1.7 1.7) (drill 1) (layers *.Cu *.Mask))
    (pad 14 thru_hole oval (at 0 33.02) (size 1.7 1.7) (drill 1) (layers *.Cu *.Mask))
    (pad 13 thru_hole oval (at 0 30.48) (size 1.7 1.7) (drill 1) (layers *.Cu *.Mask))
    (pad 12 thru_hole oval (at 0 27.94) (size 1.7 1.7) (drill 1) (layers *.Cu *.Mask))
    (pad 11 thru_hole oval (at 0 25.4) (size 1.7 1.7) (drill 1) (layers *.Cu *.Mask))
    (pad 10 thru_hole oval (at 0 22.86) (size 1.7 1.7) (drill 1) (layers *.Cu *.Mask))
    (pad 9 thru_hole oval (at 0 20.32) (size 1.7 1.7) (drill 1) (layers *.Cu *.Mask))
    (pad 8 thru_hole oval (at 0 17.78) (size 1.7 1.7) (drill 1) (layers *.Cu *.Mask))
    (pad 7 thru_hole oval (at 0 15.24) (size 1.7 1.7) (drill 1) (layers *.Cu *.Mask))
    (pad 6 thru_hole oval (at 0 12.7) (size 1.7 1.7) (drill 1) (layers *.Cu *.Mask))
    (pad 5 thru_hole oval (at 0 10.16) (size 1.7 1.7) (drill 1) (layers *.Cu *.Mask))
    (pad 4 thru_hole oval (at 0 7.62) (size 1.7 1.7) (drill 1) (layers *.Cu *.Mask))
    (pad 3 thru_hole oval (at 0 5.08) (size 1.7 1.7) (drill 1) (layers *.Cu *.Mask))
    (pad 2 thru_hole oval (at 0 2.54) (size 1.7 1.7) (drill 1) (layers *.Cu *.Mask))
    (pad 1 thru_hole oval (at 0 0) (size 1.7 1.7) (drill 1) (layers *.Cu *.Mask))
  )

  (module Connector_PinHeader_2.54mm:PinHeader_1x24_P2.54mm_Vertical (layer F.Cu) (tedit 5F92A12C) (tstamp 5F9338C9)
    (at 76.2 38.1)
    (descr "Through hole straight pin header, 1x24, 2.54mm pitch, single row")
    (tags "Through hole pin header THT 1x24 2.54mm single row")
    (fp_text reference REF** (at 0 -2.33) (layer F.Fab) hide
      (effects (font (size 1 1) (thickness 0.15)))
    )
    (fp_text value PinHeader_1x24_P2.54mm_Vertical (at 0 60.75) (layer F.Fab)
      (effects (font (size 1 1) (thickness 0.15)))
    )
    (fp_line (start 1.8 -1.8) (end -1.8 -1.8) (layer F.CrtYd) (width 0.05))
    (fp_line (start 1.8 60.2) (end 1.8 -1.8) (layer F.CrtYd) (width 0.05))
    (fp_line (start -1.8 60.2) (end 1.8 60.2) (layer F.CrtYd) (width 0.05))
    (fp_line (start -1.8 -1.8) (end -1.8 60.2) (layer F.CrtYd) (width 0.05))
    (fp_line (start -1.27 -0.635) (end -0.635 -1.27) (layer F.Fab) (width 0.1))
    (fp_line (start -1.27 59.69) (end -1.27 -0.635) (layer F.Fab) (width 0.1))
    (fp_line (start 1.27 59.69) (end -1.27 59.69) (layer F.Fab) (width 0.1))
    (fp_line (start 1.27 -1.27) (end 1.27 59.69) (layer F.Fab) (width 0.1))
    (fp_line (start -0.635 -1.27) (end 1.27 -1.27) (layer F.Fab) (width 0.1))
    (fp_text user %R (at 0 29.21 90) (layer F.Fab)
      (effects (font (size 1 1) (thickness 0.15)))
    )
    (pad 1 thru_hole oval (at 0 0) (size 1.7 1.7) (drill 1) (layers *.Cu *.Mask))
    (pad 2 thru_hole oval (at 0 2.54) (size 1.7 1.7) (drill 1) (layers *.Cu *.Mask))
    (pad 3 thru_hole oval (at 0 5.08) (size 1.7 1.7) (drill 1) (layers *.Cu *.Mask))
    (pad 4 thru_hole oval (at 0 7.62) (size 1.7 1.7) (drill 1) (layers *.Cu *.Mask))
    (pad 5 thru_hole oval (at 0 10.16) (size 1.7 1.7) (drill 1) (layers *.Cu *.Mask))
    (pad 6 thru_hole oval (at 0 12.7) (size 1.7 1.7) (drill 1) (layers *.Cu *.Mask))
    (pad 7 thru_hole oval (at 0 15.24) (size 1.7 1.7) (drill 1) (layers *.Cu *.Mask))
    (pad 8 thru_hole oval (at 0 17.78) (size 1.7 1.7) (drill 1) (layers *.Cu *.Mask))
    (pad 9 thru_hole oval (at 0 20.32) (size 1.7 1.7) (drill 1) (layers *.Cu *.Mask))
    (pad 10 thru_hole oval (at 0 22.86) (size 1.7 1.7) (drill 1) (layers *.Cu *.Mask))
    (pad 11 thru_hole oval (at 0 25.4) (size 1.7 1.7) (drill 1) (layers *.Cu *.Mask))
    (pad 12 thru_hole oval (at 0 27.94) (size 1.7 1.7) (drill 1) (layers *.Cu *.Mask))
    (pad 13 thru_hole oval (at 0 30.48) (size 1.7 1.7) (drill 1) (layers *.Cu *.Mask))
    (pad 14 thru_hole oval (at 0 33.02) (size 1.7 1.7) (drill 1) (layers *.Cu *.Mask))
    (pad 15 thru_hole oval (at 0 35.56) (size 1.7 1.7) (drill 1) (layers *.Cu *.Mask))
    (pad 16 thru_hole oval (at 0 38.1) (size 1.7 1.7) (drill 1) (layers *.Cu *.Mask))
    (pad 17 thru_hole oval (at 0 40.64) (size 1.7 1.7) (drill 1) (layers *.Cu *.Mask))
    (pad 18 thru_hole oval (at 0 43.18) (size 1.7 1.7) (drill 1) (layers *.Cu *.Mask))
    (pad 19 thru_hole oval (at 0 45.72) (size 1.7 1.7) (drill 1) (layers *.Cu *.Mask))
    (pad 20 thru_hole oval (at 0 48.26) (size 1.7 1.7) (drill 1) (layers *.Cu *.Mask))
    (pad 21 thru_hole oval (at 0 50.8) (size 1.7 1.7) (drill 1) (layers *.Cu *.Mask))
    (pad 22 thru_hole oval (at 0 53.34) (size 1.7 1.7) (drill 1) (layers *.Cu *.Mask))
    (pad 23 thru_hole oval (at 0 55.88) (size 1.7 1.7) (drill 1) (layers *.Cu *.Mask))
    (pad 24 thru_hole oval (at 0 58.42) (size 1.7 1.7) (drill 1) (layers *.Cu *.Mask))
  )

  (module Connector_PinHeader_2.54mm:PinHeader_1x24_P2.54mm_Vertical (layer F.Cu) (tedit 5F92A12C) (tstamp 5F93387F)
    (at 78.74 38.1)
    (descr "Through hole straight pin header, 1x24, 2.54mm pitch, single row")
    (tags "Through hole pin header THT 1x24 2.54mm single row")
    (fp_text reference REF** (at 0 -2.33) (layer F.Fab) hide
      (effects (font (size 1 1) (thickness 0.15)))
    )
    (fp_text value PinHeader_1x24_P2.54mm_Vertical (at 0 60.75) (layer F.Fab)
      (effects (font (size 1 1) (thickness 0.15)))
    )
    (fp_text user %R (at 0 29.21 90) (layer F.Fab)
      (effects (font (size 1 1) (thickness 0.15)))
    )
    (fp_line (start -0.635 -1.27) (end 1.27 -1.27) (layer F.Fab) (width 0.1))
    (fp_line (start 1.27 -1.27) (end 1.27 59.69) (layer F.Fab) (width 0.1))
    (fp_line (start 1.27 59.69) (end -1.27 59.69) (layer F.Fab) (width 0.1))
    (fp_line (start -1.27 59.69) (end -1.27 -0.635) (layer F.Fab) (width 0.1))
    (fp_line (start -1.27 -0.635) (end -0.635 -1.27) (layer F.Fab) (width 0.1))
    (fp_line (start -1.8 -1.8) (end -1.8 60.2) (layer F.CrtYd) (width 0.05))
    (fp_line (start -1.8 60.2) (end 1.8 60.2) (layer F.CrtYd) (width 0.05))
    (fp_line (start 1.8 60.2) (end 1.8 -1.8) (layer F.CrtYd) (width 0.05))
    (fp_line (start 1.8 -1.8) (end -1.8 -1.8) (layer F.CrtYd) (width 0.05))
    (pad 24 thru_hole oval (at 0 58.42) (size 1.7 1.7) (drill 1) (layers *.Cu *.Mask))
    (pad 23 thru_hole oval (at 0 55.88) (size 1.7 1.7) (drill 1) (layers *.Cu *.Mask))
    (pad 22 thru_hole oval (at 0 53.34) (size 1.7 1.7) (drill 1) (layers *.Cu *.Mask))
    (pad 21 thru_hole oval (at 0 50.8) (size 1.7 1.7) (drill 1) (layers *.Cu *.Mask))
    (pad 20 thru_hole oval (at 0 48.26) (size 1.7 1.7) (drill 1) (layers *.Cu *.Mask))
    (pad 19 thru_hole oval (at 0 45.72) (size 1.7 1.7) (drill 1) (layers *.Cu *.Mask))
    (pad 18 thru_hole oval (at 0 43.18) (size 1.7 1.7) (drill 1) (layers *.Cu *.Mask))
    (pad 17 thru_hole oval (at 0 40.64) (size 1.7 1.7) (drill 1) (layers *.Cu *.Mask))
    (pad 16 thru_hole oval (at 0 38.1) (size 1.7 1.7) (drill 1) (layers *.Cu *.Mask))
    (pad 15 thru_hole oval (at 0 35.56) (size 1.7 1.7) (drill 1) (layers *.Cu *.Mask))
    (pad 14 thru_hole oval (at 0 33.02) (size 1.7 1.7) (drill 1) (layers *.Cu *.Mask))
    (pad 13 thru_hole oval (at 0 30.48) (size 1.7 1.7) (drill 1) (layers *.Cu *.Mask))
    (pad 12 thru_hole oval (at 0 27.94) (size 1.7 1.7) (drill 1) (layers *.Cu *.Mask))
    (pad 11 thru_hole oval (at 0 25.4) (size 1.7 1.7) (drill 1) (layers *.Cu *.Mask))
    (pad 10 thru_hole oval (at 0 22.86) (size 1.7 1.7) (drill 1) (layers *.Cu *.Mask))
    (pad 9 thru_hole oval (at 0 20.32) (size 1.7 1.7) (drill 1) (layers *.Cu *.Mask))
    (pad 8 thru_hole oval (at 0 17.78) (size 1.7 1.7) (drill 1) (layers *.Cu *.Mask))
    (pad 7 thru_hole oval (at 0 15.24) (size 1.7 1.7) (drill 1) (layers *.Cu *.Mask))
    (pad 6 thru_hole oval (at 0 12.7) (size 1.7 1.7) (drill 1) (layers *.Cu *.Mask))
    (pad 5 thru_hole oval (at 0 10.16) (size 1.7 1.7) (drill 1) (layers *.Cu *.Mask))
    (pad 4 thru_hole oval (at 0 7.62) (size 1.7 1.7) (drill 1) (layers *.Cu *.Mask))
    (pad 3 thru_hole oval (at 0 5.08) (size 1.7 1.7) (drill 1) (layers *.Cu *.Mask))
    (pad 2 thru_hole oval (at 0 2.54) (size 1.7 1.7) (drill 1) (layers *.Cu *.Mask))
    (pad 1 thru_hole oval (at 0 0) (size 1.7 1.7) (drill 1) (layers *.Cu *.Mask))
  )

  (module Connector_PinHeader_2.54mm:PinHeader_1x24_P2.54mm_Vertical (layer F.Cu) (tedit 5F92A12C) (tstamp 5F933835)
    (at 81.28 38.1)
    (descr "Through hole straight pin header, 1x24, 2.54mm pitch, single row")
    (tags "Through hole pin header THT 1x24 2.54mm single row")
    (fp_text reference REF** (at 0 -2.33) (layer F.Fab) hide
      (effects (font (size 1 1) (thickness 0.15)))
    )
    (fp_text value PinHeader_1x24_P2.54mm_Vertical (at 0 60.75) (layer F.Fab)
      (effects (font (size 1 1) (thickness 0.15)))
    )
    (fp_line (start 1.8 -1.8) (end -1.8 -1.8) (layer F.CrtYd) (width 0.05))
    (fp_line (start 1.8 60.2) (end 1.8 -1.8) (layer F.CrtYd) (width 0.05))
    (fp_line (start -1.8 60.2) (end 1.8 60.2) (layer F.CrtYd) (width 0.05))
    (fp_line (start -1.8 -1.8) (end -1.8 60.2) (layer F.CrtYd) (width 0.05))
    (fp_line (start -1.27 -0.635) (end -0.635 -1.27) (layer F.Fab) (width 0.1))
    (fp_line (start -1.27 59.69) (end -1.27 -0.635) (layer F.Fab) (width 0.1))
    (fp_line (start 1.27 59.69) (end -1.27 59.69) (layer F.Fab) (width 0.1))
    (fp_line (start 1.27 -1.27) (end 1.27 59.69) (layer F.Fab) (width 0.1))
    (fp_line (start -0.635 -1.27) (end 1.27 -1.27) (layer F.Fab) (width 0.1))
    (fp_text user %R (at 0 29.21 90) (layer F.Fab)
      (effects (font (size 1 1) (thickness 0.15)))
    )
    (pad 1 thru_hole oval (at 0 0) (size 1.7 1.7) (drill 1) (layers *.Cu *.Mask))
    (pad 2 thru_hole oval (at 0 2.54) (size 1.7 1.7) (drill 1) (layers *.Cu *.Mask))
    (pad 3 thru_hole oval (at 0 5.08) (size 1.7 1.7) (drill 1) (layers *.Cu *.Mask))
    (pad 4 thru_hole oval (at 0 7.62) (size 1.7 1.7) (drill 1) (layers *.Cu *.Mask))
    (pad 5 thru_hole oval (at 0 10.16) (size 1.7 1.7) (drill 1) (layers *.Cu *.Mask))
    (pad 6 thru_hole oval (at 0 12.7) (size 1.7 1.7) (drill 1) (layers *.Cu *.Mask))
    (pad 7 thru_hole oval (at 0 15.24) (size 1.7 1.7) (drill 1) (layers *.Cu *.Mask))
    (pad 8 thru_hole oval (at 0 17.78) (size 1.7 1.7) (drill 1) (layers *.Cu *.Mask))
    (pad 9 thru_hole oval (at 0 20.32) (size 1.7 1.7) (drill 1) (layers *.Cu *.Mask))
    (pad 10 thru_hole oval (at 0 22.86) (size 1.7 1.7) (drill 1) (layers *.Cu *.Mask))
    (pad 11 thru_hole oval (at 0 25.4) (size 1.7 1.7) (drill 1) (layers *.Cu *.Mask))
    (pad 12 thru_hole oval (at 0 27.94) (size 1.7 1.7) (drill 1) (layers *.Cu *.Mask))
    (pad 13 thru_hole oval (at 0 30.48) (size 1.7 1.7) (drill 1) (layers *.Cu *.Mask))
    (pad 14 thru_hole oval (at 0 33.02) (size 1.7 1.7) (drill 1) (layers *.Cu *.Mask))
    (pad 15 thru_hole oval (at 0 35.56) (size 1.7 1.7) (drill 1) (layers *.Cu *.Mask))
    (pad 16 thru_hole oval (at 0 38.1) (size 1.7 1.7) (drill 1) (layers *.Cu *.Mask))
    (pad 17 thru_hole oval (at 0 40.64) (size 1.7 1.7) (drill 1) (layers *.Cu *.Mask))
    (pad 18 thru_hole oval (at 0 43.18) (size 1.7 1.7) (drill 1) (layers *.Cu *.Mask))
    (pad 19 thru_hole oval (at 0 45.72) (size 1.7 1.7) (drill 1) (layers *.Cu *.Mask))
    (pad 20 thru_hole oval (at 0 48.26) (size 1.7 1.7) (drill 1) (layers *.Cu *.Mask))
    (pad 21 thru_hole oval (at 0 50.8) (size 1.7 1.7) (drill 1) (layers *.Cu *.Mask))
    (pad 22 thru_hole oval (at 0 53.34) (size 1.7 1.7) (drill 1) (layers *.Cu *.Mask))
    (pad 23 thru_hole oval (at 0 55.88) (size 1.7 1.7) (drill 1) (layers *.Cu *.Mask))
    (pad 24 thru_hole oval (at 0 58.42) (size 1.7 1.7) (drill 1) (layers *.Cu *.Mask))
  )

  (module Connector_PinHeader_2.54mm:PinHeader_1x24_P2.54mm_Vertical (layer F.Cu) (tedit 5F92A12C) (tstamp 5F92FB8F)
    (at 83.82 38.1)
    (descr "Through hole straight pin header, 1x24, 2.54mm pitch, single row")
    (tags "Through hole pin header THT 1x24 2.54mm single row")
    (fp_text reference REF** (at 0 -2.33) (layer F.Fab) hide
      (effects (font (size 1 1) (thickness 0.15)))
    )
    (fp_text value PinHeader_1x24_P2.54mm_Vertical (at 0 60.75) (layer F.Fab)
      (effects (font (size 1 1) (thickness 0.15)))
    )
    (fp_text user %R (at 0 29.21 90) (layer F.Fab)
      (effects (font (size 1 1) (thickness 0.15)))
    )
    (fp_line (start -0.635 -1.27) (end 1.27 -1.27) (layer F.Fab) (width 0.1))
    (fp_line (start 1.27 -1.27) (end 1.27 59.69) (layer F.Fab) (width 0.1))
    (fp_line (start 1.27 59.69) (end -1.27 59.69) (layer F.Fab) (width 0.1))
    (fp_line (start -1.27 59.69) (end -1.27 -0.635) (layer F.Fab) (width 0.1))
    (fp_line (start -1.27 -0.635) (end -0.635 -1.27) (layer F.Fab) (width 0.1))
    (fp_line (start -1.8 -1.8) (end -1.8 60.2) (layer F.CrtYd) (width 0.05))
    (fp_line (start -1.8 60.2) (end 1.8 60.2) (layer F.CrtYd) (width 0.05))
    (fp_line (start 1.8 60.2) (end 1.8 -1.8) (layer F.CrtYd) (width 0.05))
    (fp_line (start 1.8 -1.8) (end -1.8 -1.8) (layer F.CrtYd) (width 0.05))
    (pad 24 thru_hole oval (at 0 58.42) (size 1.7 1.7) (drill 1) (layers *.Cu *.Mask))
    (pad 23 thru_hole oval (at 0 55.88) (size 1.7 1.7) (drill 1) (layers *.Cu *.Mask))
    (pad 22 thru_hole oval (at 0 53.34) (size 1.7 1.7) (drill 1) (layers *.Cu *.Mask))
    (pad 21 thru_hole oval (at 0 50.8) (size 1.7 1.7) (drill 1) (layers *.Cu *.Mask))
    (pad 20 thru_hole oval (at 0 48.26) (size 1.7 1.7) (drill 1) (layers *.Cu *.Mask))
    (pad 19 thru_hole oval (at 0 45.72) (size 1.7 1.7) (drill 1) (layers *.Cu *.Mask))
    (pad 18 thru_hole oval (at 0 43.18) (size 1.7 1.7) (drill 1) (layers *.Cu *.Mask))
    (pad 17 thru_hole oval (at 0 40.64) (size 1.7 1.7) (drill 1) (layers *.Cu *.Mask))
    (pad 16 thru_hole oval (at 0 38.1) (size 1.7 1.7) (drill 1) (layers *.Cu *.Mask))
    (pad 15 thru_hole oval (at 0 35.56) (size 1.7 1.7) (drill 1) (layers *.Cu *.Mask))
    (pad 14 thru_hole oval (at 0 33.02) (size 1.7 1.7) (drill 1) (layers *.Cu *.Mask))
    (pad 13 thru_hole oval (at 0 30.48) (size 1.7 1.7) (drill 1) (layers *.Cu *.Mask))
    (pad 12 thru_hole oval (at 0 27.94) (size 1.7 1.7) (drill 1) (layers *.Cu *.Mask))
    (pad 11 thru_hole oval (at 0 25.4) (size 1.7 1.7) (drill 1) (layers *.Cu *.Mask))
    (pad 10 thru_hole oval (at 0 22.86) (size 1.7 1.7) (drill 1) (layers *.Cu *.Mask))
    (pad 9 thru_hole oval (at 0 20.32) (size 1.7 1.7) (drill 1) (layers *.Cu *.Mask))
    (pad 8 thru_hole oval (at 0 17.78) (size 1.7 1.7) (drill 1) (layers *.Cu *.Mask))
    (pad 7 thru_hole oval (at 0 15.24) (size 1.7 1.7) (drill 1) (layers *.Cu *.Mask))
    (pad 6 thru_hole oval (at 0 12.7) (size 1.7 1.7) (drill 1) (layers *.Cu *.Mask))
    (pad 5 thru_hole oval (at 0 10.16) (size 1.7 1.7) (drill 1) (layers *.Cu *.Mask))
    (pad 4 thru_hole oval (at 0 7.62) (size 1.7 1.7) (drill 1) (layers *.Cu *.Mask))
    (pad 3 thru_hole oval (at 0 5.08) (size 1.7 1.7) (drill 1) (layers *.Cu *.Mask))
    (pad 2 thru_hole oval (at 0 2.54) (size 1.7 1.7) (drill 1) (layers *.Cu *.Mask))
    (pad 1 thru_hole oval (at 0 0) (size 1.7 1.7) (drill 1) (layers *.Cu *.Mask))
  )

  (module Connector_PinHeader_2.54mm:PinHeader_2x24_P2.54mm_Vertical (layer F.Cu) (tedit 5F929F33) (tstamp 5F92B103)
    (at 90.17 38.1)
    (descr "Through hole straight pin header, 2x24, 2.54mm pitch, double rows")
    (tags "Through hole pin header THT 2x24 2.54mm double row")
    (path /5F95A0A6)
    (fp_text reference slotholes1 (at 0 -3.81) (layer F.SilkS) hide
      (effects (font (size 1 1) (thickness 0.15)))
    )
    (fp_text value "02x24 holes" (at 1.27 60.75) (layer F.Fab)
      (effects (font (size 1 1) (thickness 0.15)))
    )
    (fp_line (start -4.35 -1.8) (end 1.8 -1.8) (layer F.CrtYd) (width 0.05))
    (fp_line (start -4.35 60.2) (end -4.35 -1.8) (layer F.CrtYd) (width 0.05))
    (fp_line (start 1.8 60.2) (end -4.35 60.2) (layer F.CrtYd) (width 0.05))
    (fp_line (start 1.8 -1.8) (end 1.8 60.2) (layer F.CrtYd) (width 0.05))
    (fp_line (start 1.33 -1.33) (end 0 -1.33) (layer F.SilkS) (width 0.12))
    (fp_line (start 1.33 0) (end 1.33 -1.33) (layer F.SilkS) (width 0.12))
    (fp_line (start -1.27 -1.33) (end -3.87 -1.33) (layer F.SilkS) (width 0.12))
    (fp_line (start -1.27 1.27) (end -1.27 -1.33) (layer F.SilkS) (width 0.12))
    (fp_line (start 1.33 1.27) (end -1.27 1.27) (layer F.SilkS) (width 0.12))
    (fp_line (start -3.87 -1.33) (end -3.87 59.75) (layer F.SilkS) (width 0.12))
    (fp_line (start 1.33 1.27) (end 1.33 59.75) (layer F.SilkS) (width 0.12))
    (fp_line (start 1.33 59.75) (end -3.87 59.75) (layer F.SilkS) (width 0.12))
    (fp_line (start 1.27 0) (end 0 -1.27) (layer F.Fab) (width 0.1))
    (fp_line (start 1.27 59.69) (end 1.27 0) (layer F.Fab) (width 0.1))
    (fp_line (start -3.81 59.69) (end 1.27 59.69) (layer F.Fab) (width 0.1))
    (fp_line (start -3.81 -1.27) (end -3.81 59.69) (layer F.Fab) (width 0.1))
    (fp_line (start 0 -1.27) (end -3.81 -1.27) (layer F.Fab) (width 0.1))
    (fp_text user %R (at -1.27 29.21 90) (layer F.Fab)
      (effects (font (size 1 1) (thickness 0.15)))
    )
    (pad 1 thru_hole rect (at 0 0) (size 1.7 1.7) (drill 1) (layers *.Cu *.Mask)
      (net 1 +5V))
    (pad 2 thru_hole oval (at -2.54 0) (size 1.7 1.7) (drill 1) (layers *.Cu *.Mask)
      (net 2 GND))
    (pad 3 thru_hole oval (at 0 2.54) (size 1.7 1.7) (drill 1) (layers *.Cu *.Mask)
      (net 3 /A0))
    (pad 4 thru_hole oval (at -2.54 2.54) (size 1.7 1.7) (drill 1) (layers *.Cu *.Mask)
      (net 4 /D0))
    (pad 5 thru_hole oval (at 0 5.08) (size 1.7 1.7) (drill 1) (layers *.Cu *.Mask)
      (net 5 /A1))
    (pad 6 thru_hole oval (at -2.54 5.08) (size 1.7 1.7) (drill 1) (layers *.Cu *.Mask)
      (net 6 /D1))
    (pad 7 thru_hole oval (at 0 7.62) (size 1.7 1.7) (drill 1) (layers *.Cu *.Mask)
      (net 7 /A2))
    (pad 8 thru_hole oval (at -2.54 7.62) (size 1.7 1.7) (drill 1) (layers *.Cu *.Mask)
      (net 8 /D2))
    (pad 9 thru_hole oval (at 0 10.16) (size 1.7 1.7) (drill 1) (layers *.Cu *.Mask)
      (net 9 /A3))
    (pad 10 thru_hole oval (at -2.54 10.16) (size 1.7 1.7) (drill 1) (layers *.Cu *.Mask)
      (net 10 /D3))
    (pad 11 thru_hole oval (at 0 12.7) (size 1.7 1.7) (drill 1) (layers *.Cu *.Mask)
      (net 11 /A4))
    (pad 12 thru_hole oval (at -2.54 12.7) (size 1.7 1.7) (drill 1) (layers *.Cu *.Mask)
      (net 12 /D4))
    (pad 13 thru_hole oval (at 0 15.24) (size 1.7 1.7) (drill 1) (layers *.Cu *.Mask)
      (net 13 /A5))
    (pad 14 thru_hole oval (at -2.54 15.24) (size 1.7 1.7) (drill 1) (layers *.Cu *.Mask)
      (net 14 /D5))
    (pad 15 thru_hole oval (at 0 17.78) (size 1.7 1.7) (drill 1) (layers *.Cu *.Mask)
      (net 15 /A6))
    (pad 16 thru_hole oval (at -2.54 17.78) (size 1.7 1.7) (drill 1) (layers *.Cu *.Mask)
      (net 16 /D6))
    (pad 17 thru_hole oval (at 0 20.32) (size 1.7 1.7) (drill 1) (layers *.Cu *.Mask)
      (net 17 /A7))
    (pad 18 thru_hole oval (at -2.54 20.32) (size 1.7 1.7) (drill 1) (layers *.Cu *.Mask)
      (net 18 /D7))
    (pad 19 thru_hole oval (at 0 22.86) (size 1.7 1.7) (drill 1) (layers *.Cu *.Mask)
      (net 19 /A8))
    (pad 20 thru_hole oval (at -2.54 22.86) (size 1.7 1.7) (drill 1) (layers *.Cu *.Mask)
      (net 20 /~M1))
    (pad 21 thru_hole oval (at 0 25.4) (size 1.7 1.7) (drill 1) (layers *.Cu *.Mask)
      (net 21 /A9))
    (pad 22 thru_hole oval (at -2.54 25.4) (size 1.7 1.7) (drill 1) (layers *.Cu *.Mask)
      (net 22 /~MREQ))
    (pad 23 thru_hole oval (at 0 27.94) (size 1.7 1.7) (drill 1) (layers *.Cu *.Mask)
      (net 23 /A10))
    (pad 24 thru_hole oval (at -2.54 27.94) (size 1.7 1.7) (drill 1) (layers *.Cu *.Mask)
      (net 24 /~IORQ))
    (pad 25 thru_hole oval (at 0 30.48) (size 1.7 1.7) (drill 1) (layers *.Cu *.Mask)
      (net 25 /A11))
    (pad 26 thru_hole oval (at -2.54 30.48) (size 1.7 1.7) (drill 1) (layers *.Cu *.Mask)
      (net 26 /~RD))
    (pad 27 thru_hole oval (at 0 33.02) (size 1.7 1.7) (drill 1) (layers *.Cu *.Mask)
      (net 27 /A12))
    (pad 28 thru_hole oval (at -2.54 33.02) (size 1.7 1.7) (drill 1) (layers *.Cu *.Mask)
      (net 28 /~WR))
    (pad 29 thru_hole oval (at 0 35.56) (size 1.7 1.7) (drill 1) (layers *.Cu *.Mask)
      (net 29 /A13))
    (pad 30 thru_hole oval (at -2.54 35.56) (size 1.7 1.7) (drill 1) (layers *.Cu *.Mask)
      (net 30 /~RFSH))
    (pad 31 thru_hole oval (at 0 38.1) (size 1.7 1.7) (drill 1) (layers *.Cu *.Mask)
      (net 31 /A14))
    (pad 32 thru_hole oval (at -2.54 38.1) (size 1.7 1.7) (drill 1) (layers *.Cu *.Mask)
      (net 32 /~HALT))
    (pad 33 thru_hole oval (at 0 40.64) (size 1.7 1.7) (drill 1) (layers *.Cu *.Mask)
      (net 33 /A15))
    (pad 34 thru_hole oval (at -2.54 40.64) (size 1.7 1.7) (drill 1) (layers *.Cu *.Mask)
      (net 34 /~WAIT))
    (pad 35 thru_hole oval (at 0 43.18) (size 1.7 1.7) (drill 1) (layers *.Cu *.Mask)
      (net 35 /IMEM))
    (pad 36 thru_hole oval (at -2.54 43.18) (size 1.7 1.7) (drill 1) (layers *.Cu *.Mask)
      (net 36 /~INT))
    (pad 37 thru_hole oval (at 0 45.72) (size 1.7 1.7) (drill 1) (layers *.Cu *.Mask)
      (net 37 /ICLK))
    (pad 38 thru_hole oval (at -2.54 45.72) (size 1.7 1.7) (drill 1) (layers *.Cu *.Mask)
      (net 38 /~NMI))
    (pad 39 thru_hole oval (at 0 48.26) (size 1.7 1.7) (drill 1) (layers *.Cu *.Mask)
      (net 39 /USR0))
    (pad 40 thru_hole oval (at -2.54 48.26) (size 1.7 1.7) (drill 1) (layers *.Cu *.Mask)
      (net 40 /~RESET))
    (pad 41 thru_hole oval (at 0 50.8) (size 1.7 1.7) (drill 1) (layers *.Cu *.Mask)
      (net 41 /USR1))
    (pad 42 thru_hole oval (at -2.54 50.8) (size 1.7 1.7) (drill 1) (layers *.Cu *.Mask)
      (net 42 /~BUSRQ))
    (pad 43 thru_hole oval (at 0 53.34) (size 1.7 1.7) (drill 1) (layers *.Cu *.Mask)
      (net 43 /USR2))
    (pad 44 thru_hole oval (at -2.54 53.34) (size 1.7 1.7) (drill 1) (layers *.Cu *.Mask)
      (net 44 /~BUSACK))
    (pad 45 thru_hole oval (at 0 55.88) (size 1.7 1.7) (drill 1) (layers *.Cu *.Mask)
      (net 45 /USR3))
    (pad 46 thru_hole oval (at -2.54 55.88) (size 1.7 1.7) (drill 1) (layers *.Cu *.Mask)
      (net 46 /~CLK))
    (pad 47 thru_hole oval (at 0 58.42) (size 1.7 1.7) (drill 1) (layers *.Cu *.Mask)
      (net 47 /IEI))
    (pad 48 thru_hole oval (at -2.54 58.42) (size 1.7 1.7) (drill 1) (layers *.Cu *.Mask)
      (net 48 /IEO))
  )

  (module Connector_PinHeader_2.54mm:PinHeader_2x24_P2.54mm_Horizontal (layer F.Cu) (tedit 59FED5CB) (tstamp 5F92AC47)
    (at 96.52 38.1)
    (descr "Through hole angled pin header, 2x24, 2.54mm pitch, 6mm pin length, double rows")
    (tags "Through hole angled pin header THT 2x24 2.54mm double row")
    (path /5F91CCE1)
    (fp_text reference SLOTCONN1 (at 5.655 -2.27) (layer F.SilkS) hide
      (effects (font (size 1 1) (thickness 0.15)))
    )
    (fp_text value "02x24 male 90deg" (at 5.655 60.69) (layer F.Fab)
      (effects (font (size 1 1) (thickness 0.15)))
    )
    (fp_line (start 13.1 -1.8) (end -1.8 -1.8) (layer F.CrtYd) (width 0.05))
    (fp_line (start 13.1 60.2) (end 13.1 -1.8) (layer F.CrtYd) (width 0.05))
    (fp_line (start -1.8 60.2) (end 13.1 60.2) (layer F.CrtYd) (width 0.05))
    (fp_line (start -1.8 -1.8) (end -1.8 60.2) (layer F.CrtYd) (width 0.05))
    (fp_line (start -1.27 -1.27) (end 0 -1.27) (layer F.SilkS) (width 0.12))
    (fp_line (start -1.27 0) (end -1.27 -1.27) (layer F.SilkS) (width 0.12))
    (fp_line (start 1.042929 58.8) (end 1.497071 58.8) (layer F.SilkS) (width 0.12))
    (fp_line (start 1.042929 58.04) (end 1.497071 58.04) (layer F.SilkS) (width 0.12))
    (fp_line (start 3.582929 58.8) (end 3.98 58.8) (layer F.SilkS) (width 0.12))
    (fp_line (start 3.582929 58.04) (end 3.98 58.04) (layer F.SilkS) (width 0.12))
    (fp_line (start 12.64 58.8) (end 6.64 58.8) (layer F.SilkS) (width 0.12))
    (fp_line (start 12.64 58.04) (end 12.64 58.8) (layer F.SilkS) (width 0.12))
    (fp_line (start 6.64 58.04) (end 12.64 58.04) (layer F.SilkS) (width 0.12))
    (fp_line (start 3.98 57.15) (end 6.64 57.15) (layer F.SilkS) (width 0.12))
    (fp_line (start 1.042929 56.26) (end 1.497071 56.26) (layer F.SilkS) (width 0.12))
    (fp_line (start 1.042929 55.5) (end 1.497071 55.5) (layer F.SilkS) (width 0.12))
    (fp_line (start 3.582929 56.26) (end 3.98 56.26) (layer F.SilkS) (width 0.12))
    (fp_line (start 3.582929 55.5) (end 3.98 55.5) (layer F.SilkS) (width 0.12))
    (fp_line (start 12.64 56.26) (end 6.64 56.26) (layer F.SilkS) (width 0.12))
    (fp_line (start 12.64 55.5) (end 12.64 56.26) (layer F.SilkS) (width 0.12))
    (fp_line (start 6.64 55.5) (end 12.64 55.5) (layer F.SilkS) (width 0.12))
    (fp_line (start 3.98 54.61) (end 6.64 54.61) (layer F.SilkS) (width 0.12))
    (fp_line (start 1.042929 53.72) (end 1.497071 53.72) (layer F.SilkS) (width 0.12))
    (fp_line (start 1.042929 52.96) (end 1.497071 52.96) (layer F.SilkS) (width 0.12))
    (fp_line (start 3.582929 53.72) (end 3.98 53.72) (layer F.SilkS) (width 0.12))
    (fp_line (start 3.582929 52.96) (end 3.98 52.96) (layer F.SilkS) (width 0.12))
    (fp_line (start 12.64 53.72) (end 6.64 53.72) (layer F.SilkS) (width 0.12))
    (fp_line (start 12.64 52.96) (end 12.64 53.72) (layer F.SilkS) (width 0.12))
    (fp_line (start 6.64 52.96) (end 12.64 52.96) (layer F.SilkS) (width 0.12))
    (fp_line (start 3.98 52.07) (end 6.64 52.07) (layer F.SilkS) (width 0.12))
    (fp_line (start 1.042929 51.18) (end 1.497071 51.18) (layer F.SilkS) (width 0.12))
    (fp_line (start 1.042929 50.42) (end 1.497071 50.42) (layer F.SilkS) (width 0.12))
    (fp_line (start 3.582929 51.18) (end 3.98 51.18) (layer F.SilkS) (width 0.12))
    (fp_line (start 3.582929 50.42) (end 3.98 50.42) (layer F.SilkS) (width 0.12))
    (fp_line (start 12.64 51.18) (end 6.64 51.18) (layer F.SilkS) (width 0.12))
    (fp_line (start 12.64 50.42) (end 12.64 51.18) (layer F.SilkS) (width 0.12))
    (fp_line (start 6.64 50.42) (end 12.64 50.42) (layer F.SilkS) (width 0.12))
    (fp_line (start 3.98 49.53) (end 6.64 49.53) (layer F.SilkS) (width 0.12))
    (fp_line (start 1.042929 48.64) (end 1.497071 48.64) (layer F.SilkS) (width 0.12))
    (fp_line (start 1.042929 47.88) (end 1.497071 47.88) (layer F.SilkS) (width 0.12))
    (fp_line (start 3.582929 48.64) (end 3.98 48.64) (layer F.SilkS) (width 0.12))
    (fp_line (start 3.582929 47.88) (end 3.98 47.88) (layer F.SilkS) (width 0.12))
    (fp_line (start 12.64 48.64) (end 6.64 48.64) (layer F.SilkS) (width 0.12))
    (fp_line (start 12.64 47.88) (end 12.64 48.64) (layer F.SilkS) (width 0.12))
    (fp_line (start 6.64 47.88) (end 12.64 47.88) (layer F.SilkS) (width 0.12))
    (fp_line (start 3.98 46.99) (end 6.64 46.99) (layer F.SilkS) (width 0.12))
    (fp_line (start 1.042929 46.1) (end 1.497071 46.1) (layer F.SilkS) (width 0.12))
    (fp_line (start 1.042929 45.34) (end 1.497071 45.34) (layer F.SilkS) (width 0.12))
    (fp_line (start 3.582929 46.1) (end 3.98 46.1) (layer F.SilkS) (width 0.12))
    (fp_line (start 3.582929 45.34) (end 3.98 45.34) (layer F.SilkS) (width 0.12))
    (fp_line (start 12.64 46.1) (end 6.64 46.1) (layer F.SilkS) (width 0.12))
    (fp_line (start 12.64 45.34) (end 12.64 46.1) (layer F.SilkS) (width 0.12))
    (fp_line (start 6.64 45.34) (end 12.64 45.34) (layer F.SilkS) (width 0.12))
    (fp_line (start 3.98 44.45) (end 6.64 44.45) (layer F.SilkS) (width 0.12))
    (fp_line (start 1.042929 43.56) (end 1.497071 43.56) (layer F.SilkS) (width 0.12))
    (fp_line (start 1.042929 42.8) (end 1.497071 42.8) (layer F.SilkS) (width 0.12))
    (fp_line (start 3.582929 43.56) (end 3.98 43.56) (layer F.SilkS) (width 0.12))
    (fp_line (start 3.582929 42.8) (end 3.98 42.8) (layer F.SilkS) (width 0.12))
    (fp_line (start 12.64 43.56) (end 6.64 43.56) (layer F.SilkS) (width 0.12))
    (fp_line (start 12.64 42.8) (end 12.64 43.56) (layer F.SilkS) (width 0.12))
    (fp_line (start 6.64 42.8) (end 12.64 42.8) (layer F.SilkS) (width 0.12))
    (fp_line (start 3.98 41.91) (end 6.64 41.91) (layer F.SilkS) (width 0.12))
    (fp_line (start 1.042929 41.02) (end 1.497071 41.02) (layer F.SilkS) (width 0.12))
    (fp_line (start 1.042929 40.26) (end 1.497071 40.26) (layer F.SilkS) (width 0.12))
    (fp_line (start 3.582929 41.02) (end 3.98 41.02) (layer F.SilkS) (width 0.12))
    (fp_line (start 3.582929 40.26) (end 3.98 40.26) (layer F.SilkS) (width 0.12))
    (fp_line (start 12.64 41.02) (end 6.64 41.02) (layer F.SilkS) (width 0.12))
    (fp_line (start 12.64 40.26) (end 12.64 41.02) (layer F.SilkS) (width 0.12))
    (fp_line (start 6.64 40.26) (end 12.64 40.26) (layer F.SilkS) (width 0.12))
    (fp_line (start 3.98 39.37) (end 6.64 39.37) (layer F.SilkS) (width 0.12))
    (fp_line (start 1.042929 38.48) (end 1.497071 38.48) (layer F.SilkS) (width 0.12))
    (fp_line (start 1.042929 37.72) (end 1.497071 37.72) (layer F.SilkS) (width 0.12))
    (fp_line (start 3.582929 38.48) (end 3.98 38.48) (layer F.SilkS) (width 0.12))
    (fp_line (start 3.582929 37.72) (end 3.98 37.72) (layer F.SilkS) (width 0.12))
    (fp_line (start 12.64 38.48) (end 6.64 38.48) (layer F.SilkS) (width 0.12))
    (fp_line (start 12.64 37.72) (end 12.64 38.48) (layer F.SilkS) (width 0.12))
    (fp_line (start 6.64 37.72) (end 12.64 37.72) (layer F.SilkS) (width 0.12))
    (fp_line (start 3.98 36.83) (end 6.64 36.83) (layer F.SilkS) (width 0.12))
    (fp_line (start 1.042929 35.94) (end 1.497071 35.94) (layer F.SilkS) (width 0.12))
    (fp_line (start 1.042929 35.18) (end 1.497071 35.18) (layer F.SilkS) (width 0.12))
    (fp_line (start 3.582929 35.94) (end 3.98 35.94) (layer F.SilkS) (width 0.12))
    (fp_line (start 3.582929 35.18) (end 3.98 35.18) (layer F.SilkS) (width 0.12))
    (fp_line (start 12.64 35.94) (end 6.64 35.94) (layer F.SilkS) (width 0.12))
    (fp_line (start 12.64 35.18) (end 12.64 35.94) (layer F.SilkS) (width 0.12))
    (fp_line (start 6.64 35.18) (end 12.64 35.18) (layer F.SilkS) (width 0.12))
    (fp_line (start 3.98 34.29) (end 6.64 34.29) (layer F.SilkS) (width 0.12))
    (fp_line (start 1.042929 33.4) (end 1.497071 33.4) (layer F.SilkS) (width 0.12))
    (fp_line (start 1.042929 32.64) (end 1.497071 32.64) (layer F.SilkS) (width 0.12))
    (fp_line (start 3.582929 33.4) (end 3.98 33.4) (layer F.SilkS) (width 0.12))
    (fp_line (start 3.582929 32.64) (end 3.98 32.64) (layer F.SilkS) (width 0.12))
    (fp_line (start 12.64 33.4) (end 6.64 33.4) (layer F.SilkS) (width 0.12))
    (fp_line (start 12.64 32.64) (end 12.64 33.4) (layer F.SilkS) (width 0.12))
    (fp_line (start 6.64 32.64) (end 12.64 32.64) (layer F.SilkS) (width 0.12))
    (fp_line (start 3.98 31.75) (end 6.64 31.75) (layer F.SilkS) (width 0.12))
    (fp_line (start 1.042929 30.86) (end 1.497071 30.86) (layer F.SilkS) (width 0.12))
    (fp_line (start 1.042929 30.1) (end 1.497071 30.1) (layer F.SilkS) (width 0.12))
    (fp_line (start 3.582929 30.86) (end 3.98 30.86) (layer F.SilkS) (width 0.12))
    (fp_line (start 3.582929 30.1) (end 3.98 30.1) (layer F.SilkS) (width 0.12))
    (fp_line (start 12.64 30.86) (end 6.64 30.86) (layer F.SilkS) (width 0.12))
    (fp_line (start 12.64 30.1) (end 12.64 30.86) (layer F.SilkS) (width 0.12))
    (fp_line (start 6.64 30.1) (end 12.64 30.1) (layer F.SilkS) (width 0.12))
    (fp_line (start 3.98 29.21) (end 6.64 29.21) (layer F.SilkS) (width 0.12))
    (fp_line (start 1.042929 28.32) (end 1.497071 28.32) (layer F.SilkS) (width 0.12))
    (fp_line (start 1.042929 27.56) (end 1.497071 27.56) (layer F.SilkS) (width 0.12))
    (fp_line (start 3.582929 28.32) (end 3.98 28.32) (layer F.SilkS) (width 0.12))
    (fp_line (start 3.582929 27.56) (end 3.98 27.56) (layer F.SilkS) (width 0.12))
    (fp_line (start 12.64 28.32) (end 6.64 28.32) (layer F.SilkS) (width 0.12))
    (fp_line (start 12.64 27.56) (end 12.64 28.32) (layer F.SilkS) (width 0.12))
    (fp_line (start 6.64 27.56) (end 12.64 27.56) (layer F.SilkS) (width 0.12))
    (fp_line (start 3.98 26.67) (end 6.64 26.67) (layer F.SilkS) (width 0.12))
    (fp_line (start 1.042929 25.78) (end 1.497071 25.78) (layer F.SilkS) (width 0.12))
    (fp_line (start 1.042929 25.02) (end 1.497071 25.02) (layer F.SilkS) (width 0.12))
    (fp_line (start 3.582929 25.78) (end 3.98 25.78) (layer F.SilkS) (width 0.12))
    (fp_line (start 3.582929 25.02) (end 3.98 25.02) (layer F.SilkS) (width 0.12))
    (fp_line (start 12.64 25.78) (end 6.64 25.78) (layer F.SilkS) (width 0.12))
    (fp_line (start 12.64 25.02) (end 12.64 25.78) (layer F.SilkS) (width 0.12))
    (fp_line (start 6.64 25.02) (end 12.64 25.02) (layer F.SilkS) (width 0.12))
    (fp_line (start 3.98 24.13) (end 6.64 24.13) (layer F.SilkS) (width 0.12))
    (fp_line (start 1.042929 23.24) (end 1.497071 23.24) (layer F.SilkS) (width 0.12))
    (fp_line (start 1.042929 22.48) (end 1.497071 22.48) (layer F.SilkS) (width 0.12))
    (fp_line (start 3.582929 23.24) (end 3.98 23.24) (layer F.SilkS) (width 0.12))
    (fp_line (start 3.582929 22.48) (end 3.98 22.48) (layer F.SilkS) (width 0.12))
    (fp_line (start 12.64 23.24) (end 6.64 23.24) (layer F.SilkS) (width 0.12))
    (fp_line (start 12.64 22.48) (end 12.64 23.24) (layer F.SilkS) (width 0.12))
    (fp_line (start 6.64 22.48) (end 12.64 22.48) (layer F.SilkS) (width 0.12))
    (fp_line (start 3.98 21.59) (end 6.64 21.59) (layer F.SilkS) (width 0.12))
    (fp_line (start 1.042929 20.7) (end 1.497071 20.7) (layer F.SilkS) (width 0.12))
    (fp_line (start 1.042929 19.94) (end 1.497071 19.94) (layer F.SilkS) (width 0.12))
    (fp_line (start 3.582929 20.7) (end 3.98 20.7) (layer F.SilkS) (width 0.12))
    (fp_line (start 3.582929 19.94) (end 3.98 19.94) (layer F.SilkS) (width 0.12))
    (fp_line (start 12.64 20.7) (end 6.64 20.7) (layer F.SilkS) (width 0.12))
    (fp_line (start 12.64 19.94) (end 12.64 20.7) (layer F.SilkS) (width 0.12))
    (fp_line (start 6.64 19.94) (end 12.64 19.94) (layer F.SilkS) (width 0.12))
    (fp_line (start 3.98 19.05) (end 6.64 19.05) (layer F.SilkS) (width 0.12))
    (fp_line (start 1.042929 18.16) (end 1.497071 18.16) (layer F.SilkS) (width 0.12))
    (fp_line (start 1.042929 17.4) (end 1.497071 17.4) (layer F.SilkS) (width 0.12))
    (fp_line (start 3.582929 18.16) (end 3.98 18.16) (layer F.SilkS) (width 0.12))
    (fp_line (start 3.582929 17.4) (end 3.98 17.4) (layer F.SilkS) (width 0.12))
    (fp_line (start 12.64 18.16) (end 6.64 18.16) (layer F.SilkS) (width 0.12))
    (fp_line (start 12.64 17.4) (end 12.64 18.16) (layer F.SilkS) (width 0.12))
    (fp_line (start 6.64 17.4) (end 12.64 17.4) (layer F.SilkS) (width 0.12))
    (fp_line (start 3.98 16.51) (end 6.64 16.51) (layer F.SilkS) (width 0.12))
    (fp_line (start 1.042929 15.62) (end 1.497071 15.62) (layer F.SilkS) (width 0.12))
    (fp_line (start 1.042929 14.86) (end 1.497071 14.86) (layer F.SilkS) (width 0.12))
    (fp_line (start 3.582929 15.62) (end 3.98 15.62) (layer F.SilkS) (width 0.12))
    (fp_line (start 3.582929 14.86) (end 3.98 14.86) (layer F.SilkS) (width 0.12))
    (fp_line (start 12.64 15.62) (end 6.64 15.62) (layer F.SilkS) (width 0.12))
    (fp_line (start 12.64 14.86) (end 12.64 15.62) (layer F.SilkS) (width 0.12))
    (fp_line (start 6.64 14.86) (end 12.64 14.86) (layer F.SilkS) (width 0.12))
    (fp_line (start 3.98 13.97) (end 6.64 13.97) (layer F.SilkS) (width 0.12))
    (fp_line (start 1.042929 13.08) (end 1.497071 13.08) (layer F.SilkS) (width 0.12))
    (fp_line (start 1.042929 12.32) (end 1.497071 12.32) (layer F.SilkS) (width 0.12))
    (fp_line (start 3.582929 13.08) (end 3.98 13.08) (layer F.SilkS) (width 0.12))
    (fp_line (start 3.582929 12.32) (end 3.98 12.32) (layer F.SilkS) (width 0.12))
    (fp_line (start 12.64 13.08) (end 6.64 13.08) (layer F.SilkS) (width 0.12))
    (fp_line (start 12.64 12.32) (end 12.64 13.08) (layer F.SilkS) (width 0.12))
    (fp_line (start 6.64 12.32) (end 12.64 12.32) (layer F.SilkS) (width 0.12))
    (fp_line (start 3.98 11.43) (end 6.64 11.43) (layer F.SilkS) (width 0.12))
    (fp_line (start 1.042929 10.54) (end 1.497071 10.54) (layer F.SilkS) (width 0.12))
    (fp_line (start 1.042929 9.78) (end 1.497071 9.78) (layer F.SilkS) (width 0.12))
    (fp_line (start 3.582929 10.54) (end 3.98 10.54) (layer F.SilkS) (width 0.12))
    (fp_line (start 3.582929 9.78) (end 3.98 9.78) (layer F.SilkS) (width 0.12))
    (fp_line (start 12.64 10.54) (end 6.64 10.54) (layer F.SilkS) (width 0.12))
    (fp_line (start 12.64 9.78) (end 12.64 10.54) (layer F.SilkS) (width 0.12))
    (fp_line (start 6.64 9.78) (end 12.64 9.78) (layer F.SilkS) (width 0.12))
    (fp_line (start 3.98 8.89) (end 6.64 8.89) (layer F.SilkS) (width 0.12))
    (fp_line (start 1.042929 8) (end 1.497071 8) (layer F.SilkS) (width 0.12))
    (fp_line (start 1.042929 7.24) (end 1.497071 7.24) (layer F.SilkS) (width 0.12))
    (fp_line (start 3.582929 8) (end 3.98 8) (layer F.SilkS) (width 0.12))
    (fp_line (start 3.582929 7.24) (end 3.98 7.24) (layer F.SilkS) (width 0.12))
    (fp_line (start 12.64 8) (end 6.64 8) (layer F.SilkS) (width 0.12))
    (fp_line (start 12.64 7.24) (end 12.64 8) (layer F.SilkS) (width 0.12))
    (fp_line (start 6.64 7.24) (end 12.64 7.24) (layer F.SilkS) (width 0.12))
    (fp_line (start 3.98 6.35) (end 6.64 6.35) (layer F.SilkS) (width 0.12))
    (fp_line (start 1.042929 5.46) (end 1.497071 5.46) (layer F.SilkS) (width 0.12))
    (fp_line (start 1.042929 4.7) (end 1.497071 4.7) (layer F.SilkS) (width 0.12))
    (fp_line (start 3.582929 5.46) (end 3.98 5.46) (layer F.SilkS) (width 0.12))
    (fp_line (start 3.582929 4.7) (end 3.98 4.7) (layer F.SilkS) (width 0.12))
    (fp_line (start 12.64 5.46) (end 6.64 5.46) (layer F.SilkS) (width 0.12))
    (fp_line (start 12.64 4.7) (end 12.64 5.46) (layer F.SilkS) (width 0.12))
    (fp_line (start 6.64 4.7) (end 12.64 4.7) (layer F.SilkS) (width 0.12))
    (fp_line (start 3.98 3.81) (end 6.64 3.81) (layer F.SilkS) (width 0.12))
    (fp_line (start 1.042929 2.92) (end 1.497071 2.92) (layer F.SilkS) (width 0.12))
    (fp_line (start 1.042929 2.16) (end 1.497071 2.16) (layer F.SilkS) (width 0.12))
    (fp_line (start 3.582929 2.92) (end 3.98 2.92) (layer F.SilkS) (width 0.12))
    (fp_line (start 3.582929 2.16) (end 3.98 2.16) (layer F.SilkS) (width 0.12))
    (fp_line (start 12.64 2.92) (end 6.64 2.92) (layer F.SilkS) (width 0.12))
    (fp_line (start 12.64 2.16) (end 12.64 2.92) (layer F.SilkS) (width 0.12))
    (fp_line (start 6.64 2.16) (end 12.64 2.16) (layer F.SilkS) (width 0.12))
    (fp_line (start 3.98 1.27) (end 6.64 1.27) (layer F.SilkS) (width 0.12))
    (fp_line (start 1.11 0.38) (end 1.497071 0.38) (layer F.SilkS) (width 0.12))
    (fp_line (start 1.11 -0.38) (end 1.497071 -0.38) (layer F.SilkS) (width 0.12))
    (fp_line (start 3.582929 0.38) (end 3.98 0.38) (layer F.SilkS) (width 0.12))
    (fp_line (start 3.582929 -0.38) (end 3.98 -0.38) (layer F.SilkS) (width 0.12))
    (fp_line (start 6.64 0.28) (end 12.64 0.28) (layer F.SilkS) (width 0.12))
    (fp_line (start 6.64 0.16) (end 12.64 0.16) (layer F.SilkS) (width 0.12))
    (fp_line (start 6.64 0.04) (end 12.64 0.04) (layer F.SilkS) (width 0.12))
    (fp_line (start 6.64 -0.08) (end 12.64 -0.08) (layer F.SilkS) (width 0.12))
    (fp_line (start 6.64 -0.2) (end 12.64 -0.2) (layer F.SilkS) (width 0.12))
    (fp_line (start 6.64 -0.32) (end 12.64 -0.32) (layer F.SilkS) (width 0.12))
    (fp_line (start 12.64 0.38) (end 6.64 0.38) (layer F.SilkS) (width 0.12))
    (fp_line (start 12.64 -0.38) (end 12.64 0.38) (layer F.SilkS) (width 0.12))
    (fp_line (start 6.64 -0.38) (end 12.64 -0.38) (layer F.SilkS) (width 0.12))
    (fp_line (start 6.64 -1.33) (end 3.98 -1.33) (layer F.SilkS) (width 0.12))
    (fp_line (start 6.64 59.75) (end 6.64 -1.33) (layer F.SilkS) (width 0.12))
    (fp_line (start 3.98 59.75) (end 6.64 59.75) (layer F.SilkS) (width 0.12))
    (fp_line (start 3.98 -1.33) (end 3.98 59.75) (layer F.SilkS) (width 0.12))
    (fp_line (start 6.58 58.74) (end 12.58 58.74) (layer F.Fab) (width 0.1))
    (fp_line (start 12.58 58.1) (end 12.58 58.74) (layer F.Fab) (width 0.1))
    (fp_line (start 6.58 58.1) (end 12.58 58.1) (layer F.Fab) (width 0.1))
    (fp_line (start -0.32 58.74) (end 4.04 58.74) (layer F.Fab) (width 0.1))
    (fp_line (start -0.32 58.1) (end -0.32 58.74) (layer F.Fab) (width 0.1))
    (fp_line (start -0.32 58.1) (end 4.04 58.1) (layer F.Fab) (width 0.1))
    (fp_line (start 6.58 56.2) (end 12.58 56.2) (layer F.Fab) (width 0.1))
    (fp_line (start 12.58 55.56) (end 12.58 56.2) (layer F.Fab) (width 0.1))
    (fp_line (start 6.58 55.56) (end 12.58 55.56) (layer F.Fab) (width 0.1))
    (fp_line (start -0.32 56.2) (end 4.04 56.2) (layer F.Fab) (width 0.1))
    (fp_line (start -0.32 55.56) (end -0.32 56.2) (layer F.Fab) (width 0.1))
    (fp_line (start -0.32 55.56) (end 4.04 55.56) (layer F.Fab) (width 0.1))
    (fp_line (start 6.58 53.66) (end 12.58 53.66) (layer F.Fab) (width 0.1))
    (fp_line (start 12.58 53.02) (end 12.58 53.66) (layer F.Fab) (width 0.1))
    (fp_line (start 6.58 53.02) (end 12.58 53.02) (layer F.Fab) (width 0.1))
    (fp_line (start -0.32 53.66) (end 4.04 53.66) (layer F.Fab) (width 0.1))
    (fp_line (start -0.32 53.02) (end -0.32 53.66) (layer F.Fab) (width 0.1))
    (fp_line (start -0.32 53.02) (end 4.04 53.02) (layer F.Fab) (width 0.1))
    (fp_line (start 6.58 51.12) (end 12.58 51.12) (layer F.Fab) (width 0.1))
    (fp_line (start 12.58 50.48) (end 12.58 51.12) (layer F.Fab) (width 0.1))
    (fp_line (start 6.58 50.48) (end 12.58 50.48) (layer F.Fab) (width 0.1))
    (fp_line (start -0.32 51.12) (end 4.04 51.12) (layer F.Fab) (width 0.1))
    (fp_line (start -0.32 50.48) (end -0.32 51.12) (layer F.Fab) (width 0.1))
    (fp_line (start -0.32 50.48) (end 4.04 50.48) (layer F.Fab) (width 0.1))
    (fp_line (start 6.58 48.58) (end 12.58 48.58) (layer F.Fab) (width 0.1))
    (fp_line (start 12.58 47.94) (end 12.58 48.58) (layer F.Fab) (width 0.1))
    (fp_line (start 6.58 47.94) (end 12.58 47.94) (layer F.Fab) (width 0.1))
    (fp_line (start -0.32 48.58) (end 4.04 48.58) (layer F.Fab) (width 0.1))
    (fp_line (start -0.32 47.94) (end -0.32 48.58) (layer F.Fab) (width 0.1))
    (fp_line (start -0.32 47.94) (end 4.04 47.94) (layer F.Fab) (width 0.1))
    (fp_line (start 6.58 46.04) (end 12.58 46.04) (layer F.Fab) (width 0.1))
    (fp_line (start 12.58 45.4) (end 12.58 46.04) (layer F.Fab) (width 0.1))
    (fp_line (start 6.58 45.4) (end 12.58 45.4) (layer F.Fab) (width 0.1))
    (fp_line (start -0.32 46.04) (end 4.04 46.04) (layer F.Fab) (width 0.1))
    (fp_line (start -0.32 45.4) (end -0.32 46.04) (layer F.Fab) (width 0.1))
    (fp_line (start -0.32 45.4) (end 4.04 45.4) (layer F.Fab) (width 0.1))
    (fp_line (start 6.58 43.5) (end 12.58 43.5) (layer F.Fab) (width 0.1))
    (fp_line (start 12.58 42.86) (end 12.58 43.5) (layer F.Fab) (width 0.1))
    (fp_line (start 6.58 42.86) (end 12.58 42.86) (layer F.Fab) (width 0.1))
    (fp_line (start -0.32 43.5) (end 4.04 43.5) (layer F.Fab) (width 0.1))
    (fp_line (start -0.32 42.86) (end -0.32 43.5) (layer F.Fab) (width 0.1))
    (fp_line (start -0.32 42.86) (end 4.04 42.86) (layer F.Fab) (width 0.1))
    (fp_line (start 6.58 40.96) (end 12.58 40.96) (layer F.Fab) (width 0.1))
    (fp_line (start 12.58 40.32) (end 12.58 40.96) (layer F.Fab) (width 0.1))
    (fp_line (start 6.58 40.32) (end 12.58 40.32) (layer F.Fab) (width 0.1))
    (fp_line (start -0.32 40.96) (end 4.04 40.96) (layer F.Fab) (width 0.1))
    (fp_line (start -0.32 40.32) (end -0.32 40.96) (layer F.Fab) (width 0.1))
    (fp_line (start -0.32 40.32) (end 4.04 40.32) (layer F.Fab) (width 0.1))
    (fp_line (start 6.58 38.42) (end 12.58 38.42) (layer F.Fab) (width 0.1))
    (fp_line (start 12.58 37.78) (end 12.58 38.42) (layer F.Fab) (width 0.1))
    (fp_line (start 6.58 37.78) (end 12.58 37.78) (layer F.Fab) (width 0.1))
    (fp_line (start -0.32 38.42) (end 4.04 38.42) (layer F.Fab) (width 0.1))
    (fp_line (start -0.32 37.78) (end -0.32 38.42) (layer F.Fab) (width 0.1))
    (fp_line (start -0.32 37.78) (end 4.04 37.78) (layer F.Fab) (width 0.1))
    (fp_line (start 6.58 35.88) (end 12.58 35.88) (layer F.Fab) (width 0.1))
    (fp_line (start 12.58 35.24) (end 12.58 35.88) (layer F.Fab) (width 0.1))
    (fp_line (start 6.58 35.24) (end 12.58 35.24) (layer F.Fab) (width 0.1))
    (fp_line (start -0.32 35.88) (end 4.04 35.88) (layer F.Fab) (width 0.1))
    (fp_line (start -0.32 35.24) (end -0.32 35.88) (layer F.Fab) (width 0.1))
    (fp_line (start -0.32 35.24) (end 4.04 35.24) (layer F.Fab) (width 0.1))
    (fp_line (start 6.58 33.34) (end 12.58 33.34) (layer F.Fab) (width 0.1))
    (fp_line (start 12.58 32.7) (end 12.58 33.34) (layer F.Fab) (width 0.1))
    (fp_line (start 6.58 32.7) (end 12.58 32.7) (layer F.Fab) (width 0.1))
    (fp_line (start -0.32 33.34) (end 4.04 33.34) (layer F.Fab) (width 0.1))
    (fp_line (start -0.32 32.7) (end -0.32 33.34) (layer F.Fab) (width 0.1))
    (fp_line (start -0.32 32.7) (end 4.04 32.7) (layer F.Fab) (width 0.1))
    (fp_line (start 6.58 30.8) (end 12.58 30.8) (layer F.Fab) (width 0.1))
    (fp_line (start 12.58 30.16) (end 12.58 30.8) (layer F.Fab) (width 0.1))
    (fp_line (start 6.58 30.16) (end 12.58 30.16) (layer F.Fab) (width 0.1))
    (fp_line (start -0.32 30.8) (end 4.04 30.8) (layer F.Fab) (width 0.1))
    (fp_line (start -0.32 30.16) (end -0.32 30.8) (layer F.Fab) (width 0.1))
    (fp_line (start -0.32 30.16) (end 4.04 30.16) (layer F.Fab) (width 0.1))
    (fp_line (start 6.58 28.26) (end 12.58 28.26) (layer F.Fab) (width 0.1))
    (fp_line (start 12.58 27.62) (end 12.58 28.26) (layer F.Fab) (width 0.1))
    (fp_line (start 6.58 27.62) (end 12.58 27.62) (layer F.Fab) (width 0.1))
    (fp_line (start -0.32 28.26) (end 4.04 28.26) (layer F.Fab) (width 0.1))
    (fp_line (start -0.32 27.62) (end -0.32 28.26) (layer F.Fab) (width 0.1))
    (fp_line (start -0.32 27.62) (end 4.04 27.62) (layer F.Fab) (width 0.1))
    (fp_line (start 6.58 25.72) (end 12.58 25.72) (layer F.Fab) (width 0.1))
    (fp_line (start 12.58 25.08) (end 12.58 25.72) (layer F.Fab) (width 0.1))
    (fp_line (start 6.58 25.08) (end 12.58 25.08) (layer F.Fab) (width 0.1))
    (fp_line (start -0.32 25.72) (end 4.04 25.72) (layer F.Fab) (width 0.1))
    (fp_line (start -0.32 25.08) (end -0.32 25.72) (layer F.Fab) (width 0.1))
    (fp_line (start -0.32 25.08) (end 4.04 25.08) (layer F.Fab) (width 0.1))
    (fp_line (start 6.58 23.18) (end 12.58 23.18) (layer F.Fab) (width 0.1))
    (fp_line (start 12.58 22.54) (end 12.58 23.18) (layer F.Fab) (width 0.1))
    (fp_line (start 6.58 22.54) (end 12.58 22.54) (layer F.Fab) (width 0.1))
    (fp_line (start -0.32 23.18) (end 4.04 23.18) (layer F.Fab) (width 0.1))
    (fp_line (start -0.32 22.54) (end -0.32 23.18) (layer F.Fab) (width 0.1))
    (fp_line (start -0.32 22.54) (end 4.04 22.54) (layer F.Fab) (width 0.1))
    (fp_line (start 6.58 20.64) (end 12.58 20.64) (layer F.Fab) (width 0.1))
    (fp_line (start 12.58 20) (end 12.58 20.64) (layer F.Fab) (width 0.1))
    (fp_line (start 6.58 20) (end 12.58 20) (layer F.Fab) (width 0.1))
    (fp_line (start -0.32 20.64) (end 4.04 20.64) (layer F.Fab) (width 0.1))
    (fp_line (start -0.32 20) (end -0.32 20.64) (layer F.Fab) (width 0.1))
    (fp_line (start -0.32 20) (end 4.04 20) (layer F.Fab) (width 0.1))
    (fp_line (start 6.58 18.1) (end 12.58 18.1) (layer F.Fab) (width 0.1))
    (fp_line (start 12.58 17.46) (end 12.58 18.1) (layer F.Fab) (width 0.1))
    (fp_line (start 6.58 17.46) (end 12.58 17.46) (layer F.Fab) (width 0.1))
    (fp_line (start -0.32 18.1) (end 4.04 18.1) (layer F.Fab) (width 0.1))
    (fp_line (start -0.32 17.46) (end -0.32 18.1) (layer F.Fab) (width 0.1))
    (fp_line (start -0.32 17.46) (end 4.04 17.46) (layer F.Fab) (width 0.1))
    (fp_line (start 6.58 15.56) (end 12.58 15.56) (layer F.Fab) (width 0.1))
    (fp_line (start 12.58 14.92) (end 12.58 15.56) (layer F.Fab) (width 0.1))
    (fp_line (start 6.58 14.92) (end 12.58 14.92) (layer F.Fab) (width 0.1))
    (fp_line (start -0.32 15.56) (end 4.04 15.56) (layer F.Fab) (width 0.1))
    (fp_line (start -0.32 14.92) (end -0.32 15.56) (layer F.Fab) (width 0.1))
    (fp_line (start -0.32 14.92) (end 4.04 14.92) (layer F.Fab) (width 0.1))
    (fp_line (start 6.58 13.02) (end 12.58 13.02) (layer F.Fab) (width 0.1))
    (fp_line (start 12.58 12.38) (end 12.58 13.02) (layer F.Fab) (width 0.1))
    (fp_line (start 6.58 12.38) (end 12.58 12.38) (layer F.Fab) (width 0.1))
    (fp_line (start -0.32 13.02) (end 4.04 13.02) (layer F.Fab) (width 0.1))
    (fp_line (start -0.32 12.38) (end -0.32 13.02) (layer F.Fab) (width 0.1))
    (fp_line (start -0.32 12.38) (end 4.04 12.38) (layer F.Fab) (width 0.1))
    (fp_line (start 6.58 10.48) (end 12.58 10.48) (layer F.Fab) (width 0.1))
    (fp_line (start 12.58 9.84) (end 12.58 10.48) (layer F.Fab) (width 0.1))
    (fp_line (start 6.58 9.84) (end 12.58 9.84) (layer F.Fab) (width 0.1))
    (fp_line (start -0.32 10.48) (end 4.04 10.48) (layer F.Fab) (width 0.1))
    (fp_line (start -0.32 9.84) (end -0.32 10.48) (layer F.Fab) (width 0.1))
    (fp_line (start -0.32 9.84) (end 4.04 9.84) (layer F.Fab) (width 0.1))
    (fp_line (start 6.58 7.94) (end 12.58 7.94) (layer F.Fab) (width 0.1))
    (fp_line (start 12.58 7.3) (end 12.58 7.94) (layer F.Fab) (width 0.1))
    (fp_line (start 6.58 7.3) (end 12.58 7.3) (layer F.Fab) (width 0.1))
    (fp_line (start -0.32 7.94) (end 4.04 7.94) (layer F.Fab) (width 0.1))
    (fp_line (start -0.32 7.3) (end -0.32 7.94) (layer F.Fab) (width 0.1))
    (fp_line (start -0.32 7.3) (end 4.04 7.3) (layer F.Fab) (width 0.1))
    (fp_line (start 6.58 5.4) (end 12.58 5.4) (layer F.Fab) (width 0.1))
    (fp_line (start 12.58 4.76) (end 12.58 5.4) (layer F.Fab) (width 0.1))
    (fp_line (start 6.58 4.76) (end 12.58 4.76) (layer F.Fab) (width 0.1))
    (fp_line (start -0.32 5.4) (end 4.04 5.4) (layer F.Fab) (width 0.1))
    (fp_line (start -0.32 4.76) (end -0.32 5.4) (layer F.Fab) (width 0.1))
    (fp_line (start -0.32 4.76) (end 4.04 4.76) (layer F.Fab) (width 0.1))
    (fp_line (start 6.58 2.86) (end 12.58 2.86) (layer F.Fab) (width 0.1))
    (fp_line (start 12.58 2.22) (end 12.58 2.86) (layer F.Fab) (width 0.1))
    (fp_line (start 6.58 2.22) (end 12.58 2.22) (layer F.Fab) (width 0.1))
    (fp_line (start -0.32 2.86) (end 4.04 2.86) (layer F.Fab) (width 0.1))
    (fp_line (start -0.32 2.22) (end -0.32 2.86) (layer F.Fab) (width 0.1))
    (fp_line (start -0.32 2.22) (end 4.04 2.22) (layer F.Fab) (width 0.1))
    (fp_line (start 6.58 0.32) (end 12.58 0.32) (layer F.Fab) (width 0.1))
    (fp_line (start 12.58 -0.32) (end 12.58 0.32) (layer F.Fab) (width 0.1))
    (fp_line (start 6.58 -0.32) (end 12.58 -0.32) (layer F.Fab) (width 0.1))
    (fp_line (start -0.32 0.32) (end 4.04 0.32) (layer F.Fab) (width 0.1))
    (fp_line (start -0.32 -0.32) (end -0.32 0.32) (layer F.Fab) (width 0.1))
    (fp_line (start -0.32 -0.32) (end 4.04 -0.32) (layer F.Fab) (width 0.1))
    (fp_line (start 4.04 -0.635) (end 4.675 -1.27) (layer F.Fab) (width 0.1))
    (fp_line (start 4.04 59.69) (end 4.04 -0.635) (layer F.Fab) (width 0.1))
    (fp_line (start 6.58 59.69) (end 4.04 59.69) (layer F.Fab) (width 0.1))
    (fp_line (start 6.58 -1.27) (end 6.58 59.69) (layer F.Fab) (width 0.1))
    (fp_line (start 4.675 -1.27) (end 6.58 -1.27) (layer F.Fab) (width 0.1))
    (fp_text user %R (at 5.31 29.21 90) (layer F.Fab)
      (effects (font (size 1 1) (thickness 0.15)))
    )
    (pad 1 thru_hole rect (at 0 0) (size 1.7 1.7) (drill 1) (layers *.Cu *.Mask)
      (net 1 +5V))
    (pad 2 thru_hole oval (at 2.54 0) (size 1.7 1.7) (drill 1) (layers *.Cu *.Mask)
      (net 2 GND))
    (pad 3 thru_hole oval (at 0 2.54) (size 1.7 1.7) (drill 1) (layers *.Cu *.Mask)
      (net 3 /A0))
    (pad 4 thru_hole oval (at 2.54 2.54) (size 1.7 1.7) (drill 1) (layers *.Cu *.Mask)
      (net 4 /D0))
    (pad 5 thru_hole oval (at 0 5.08) (size 1.7 1.7) (drill 1) (layers *.Cu *.Mask)
      (net 5 /A1))
    (pad 6 thru_hole oval (at 2.54 5.08) (size 1.7 1.7) (drill 1) (layers *.Cu *.Mask)
      (net 6 /D1))
    (pad 7 thru_hole oval (at 0 7.62) (size 1.7 1.7) (drill 1) (layers *.Cu *.Mask)
      (net 7 /A2))
    (pad 8 thru_hole oval (at 2.54 7.62) (size 1.7 1.7) (drill 1) (layers *.Cu *.Mask)
      (net 8 /D2))
    (pad 9 thru_hole oval (at 0 10.16) (size 1.7 1.7) (drill 1) (layers *.Cu *.Mask)
      (net 9 /A3))
    (pad 10 thru_hole oval (at 2.54 10.16) (size 1.7 1.7) (drill 1) (layers *.Cu *.Mask)
      (net 10 /D3))
    (pad 11 thru_hole oval (at 0 12.7) (size 1.7 1.7) (drill 1) (layers *.Cu *.Mask)
      (net 11 /A4))
    (pad 12 thru_hole oval (at 2.54 12.7) (size 1.7 1.7) (drill 1) (layers *.Cu *.Mask)
      (net 12 /D4))
    (pad 13 thru_hole oval (at 0 15.24) (size 1.7 1.7) (drill 1) (layers *.Cu *.Mask)
      (net 13 /A5))
    (pad 14 thru_hole oval (at 2.54 15.24) (size 1.7 1.7) (drill 1) (layers *.Cu *.Mask)
      (net 14 /D5))
    (pad 15 thru_hole oval (at 0 17.78) (size 1.7 1.7) (drill 1) (layers *.Cu *.Mask)
      (net 15 /A6))
    (pad 16 thru_hole oval (at 2.54 17.78) (size 1.7 1.7) (drill 1) (layers *.Cu *.Mask)
      (net 16 /D6))
    (pad 17 thru_hole oval (at 0 20.32) (size 1.7 1.7) (drill 1) (layers *.Cu *.Mask)
      (net 17 /A7))
    (pad 18 thru_hole oval (at 2.54 20.32) (size 1.7 1.7) (drill 1) (layers *.Cu *.Mask)
      (net 18 /D7))
    (pad 19 thru_hole oval (at 0 22.86) (size 1.7 1.7) (drill 1) (layers *.Cu *.Mask)
      (net 19 /A8))
    (pad 20 thru_hole oval (at 2.54 22.86) (size 1.7 1.7) (drill 1) (layers *.Cu *.Mask)
      (net 20 /~M1))
    (pad 21 thru_hole oval (at 0 25.4) (size 1.7 1.7) (drill 1) (layers *.Cu *.Mask)
      (net 21 /A9))
    (pad 22 thru_hole oval (at 2.54 25.4) (size 1.7 1.7) (drill 1) (layers *.Cu *.Mask)
      (net 22 /~MREQ))
    (pad 23 thru_hole oval (at 0 27.94) (size 1.7 1.7) (drill 1) (layers *.Cu *.Mask)
      (net 23 /A10))
    (pad 24 thru_hole oval (at 2.54 27.94) (size 1.7 1.7) (drill 1) (layers *.Cu *.Mask)
      (net 24 /~IORQ))
    (pad 25 thru_hole oval (at 0 30.48) (size 1.7 1.7) (drill 1) (layers *.Cu *.Mask)
      (net 25 /A11))
    (pad 26 thru_hole oval (at 2.54 30.48) (size 1.7 1.7) (drill 1) (layers *.Cu *.Mask)
      (net 26 /~RD))
    (pad 27 thru_hole oval (at 0 33.02) (size 1.7 1.7) (drill 1) (layers *.Cu *.Mask)
      (net 27 /A12))
    (pad 28 thru_hole oval (at 2.54 33.02) (size 1.7 1.7) (drill 1) (layers *.Cu *.Mask)
      (net 28 /~WR))
    (pad 29 thru_hole oval (at 0 35.56) (size 1.7 1.7) (drill 1) (layers *.Cu *.Mask)
      (net 29 /A13))
    (pad 30 thru_hole oval (at 2.54 35.56) (size 1.7 1.7) (drill 1) (layers *.Cu *.Mask)
      (net 30 /~RFSH))
    (pad 31 thru_hole oval (at 0 38.1) (size 1.7 1.7) (drill 1) (layers *.Cu *.Mask)
      (net 31 /A14))
    (pad 32 thru_hole oval (at 2.54 38.1) (size 1.7 1.7) (drill 1) (layers *.Cu *.Mask)
      (net 32 /~HALT))
    (pad 33 thru_hole oval (at 0 40.64) (size 1.7 1.7) (drill 1) (layers *.Cu *.Mask)
      (net 33 /A15))
    (pad 34 thru_hole oval (at 2.54 40.64) (size 1.7 1.7) (drill 1) (layers *.Cu *.Mask)
      (net 34 /~WAIT))
    (pad 35 thru_hole oval (at 0 43.18) (size 1.7 1.7) (drill 1) (layers *.Cu *.Mask)
      (net 35 /IMEM))
    (pad 36 thru_hole oval (at 2.54 43.18) (size 1.7 1.7) (drill 1) (layers *.Cu *.Mask)
      (net 36 /~INT))
    (pad 37 thru_hole oval (at 0 45.72) (size 1.7 1.7) (drill 1) (layers *.Cu *.Mask)
      (net 37 /ICLK))
    (pad 38 thru_hole oval (at 2.54 45.72) (size 1.7 1.7) (drill 1) (layers *.Cu *.Mask)
      (net 38 /~NMI))
    (pad 39 thru_hole oval (at 0 48.26) (size 1.7 1.7) (drill 1) (layers *.Cu *.Mask)
      (net 39 /USR0))
    (pad 40 thru_hole oval (at 2.54 48.26) (size 1.7 1.7) (drill 1) (layers *.Cu *.Mask)
      (net 40 /~RESET))
    (pad 41 thru_hole oval (at 0 50.8) (size 1.7 1.7) (drill 1) (layers *.Cu *.Mask)
      (net 41 /USR1))
    (pad 42 thru_hole oval (at 2.54 50.8) (size 1.7 1.7) (drill 1) (layers *.Cu *.Mask)
      (net 42 /~BUSRQ))
    (pad 43 thru_hole oval (at 0 53.34) (size 1.7 1.7) (drill 1) (layers *.Cu *.Mask)
      (net 43 /USR2))
    (pad 44 thru_hole oval (at 2.54 53.34) (size 1.7 1.7) (drill 1) (layers *.Cu *.Mask)
      (net 44 /~BUSACK))
    (pad 45 thru_hole oval (at 0 55.88) (size 1.7 1.7) (drill 1) (layers *.Cu *.Mask)
      (net 45 /USR3))
    (pad 46 thru_hole oval (at 2.54 55.88) (size 1.7 1.7) (drill 1) (layers *.Cu *.Mask)
      (net 46 /~CLK))
    (pad 47 thru_hole oval (at 0 58.42) (size 1.7 1.7) (drill 1) (layers *.Cu *.Mask)
      (net 47 /IEI))
    (pad 48 thru_hole oval (at 2.54 58.42) (size 1.7 1.7) (drill 1) (layers *.Cu *.Mask)
      (net 48 /IEO))
    (model ${KISYS3DMOD}/Connector_PinHeader_2.54mm.3dshapes/PinHeader_2x24_P2.54mm_Horizontal.wrl
      (at (xyz 0 0 0))
      (scale (xyz 1 1 1))
      (rotate (xyz 0 0 0))
    )
  )

  (gr_text "Rev. 0\nJLCJLCJLCJLC" (at 93.345 36.83 90) (layer F.SilkS) (tstamp 5F935AB4)
    (effects (font (size 0.75 0.75) (thickness 0.15)) (justify right))
  )
  (gr_text "NZ80MOD - Protoboard 12x24\n© 2020 Kyra 'nonchip' Zimmer <me@nonchip.de>" (at 93.345 97.79 90) (layer F.SilkS)
    (effects (font (size 0.75 0.75) (thickness 0.15)) (justify left))
  )
  (gr_line (start 53.34 100.33) (end 93.98 100.33) (layer Edge.Cuts) (width 0.05) (tstamp 5F933124))
  (gr_line (start 53.34 34.29) (end 53.34 100.33) (layer Edge.Cuts) (width 0.05))
  (gr_line (start 93.98 34.29) (end 53.34 34.29) (layer Edge.Cuts) (width 0.05))
  (dimension 40.64 (width 0.15) (layer Dwgs.User)
    (gr_text "40.640 mm" (at 73.66 17.75) (layer Dwgs.User)
      (effects (font (size 1 1) (thickness 0.15)))
    )
    (feature1 (pts (xy 53.34 34.29) (xy 53.34 18.463579)))
    (feature2 (pts (xy 93.98 34.29) (xy 93.98 18.463579)))
    (crossbar (pts (xy 93.98 19.05) (xy 53.34 19.05)))
    (arrow1a (pts (xy 53.34 19.05) (xy 54.466504 18.463579)))
    (arrow1b (pts (xy 53.34 19.05) (xy 54.466504 19.636421)))
    (arrow2a (pts (xy 93.98 19.05) (xy 92.853496 18.463579)))
    (arrow2b (pts (xy 93.98 19.05) (xy 92.853496 19.636421)))
  )
  (dimension 66.04 (width 0.15) (layer Dwgs.User)
    (gr_text "66.040 mm" (at 119.41 67.31 270) (layer Dwgs.User)
      (effects (font (size 1 1) (thickness 0.15)))
    )
    (feature1 (pts (xy 104.14 100.33) (xy 118.696421 100.33)))
    (feature2 (pts (xy 104.14 34.29) (xy 118.696421 34.29)))
    (crossbar (pts (xy 118.11 34.29) (xy 118.11 100.33)))
    (arrow1a (pts (xy 118.11 100.33) (xy 117.523579 99.203496)))
    (arrow1b (pts (xy 118.11 100.33) (xy 118.696421 99.203496)))
    (arrow2a (pts (xy 118.11 34.29) (xy 117.523579 35.416504)))
    (arrow2b (pts (xy 118.11 34.29) (xy 118.696421 35.416504)))
  )
  (gr_line (start 104.14 100.33) (end 93.98 100.33) (layer Edge.Cuts) (width 0.05))
  (gr_line (start 104.14 34.29) (end 104.14 100.33) (layer Edge.Cuts) (width 0.05))
  (gr_line (start 93.98 34.29) (end 104.14 34.29) (layer Edge.Cuts) (width 0.05))

  (segment (start 90.17 38.1) (end 96.52 38.1) (width 0.4) (layer F.Cu) (net 1))
  (segment (start 97.709999 36.749999) (end 99.06 38.1) (width 0.4) (layer F.Cu) (net 2))
  (segment (start 88.980001 36.749999) (end 97.709999 36.749999) (width 0.4) (layer F.Cu) (net 2))
  (segment (start 87.63 38.1) (end 88.980001 36.749999) (width 0.4) (layer F.Cu) (net 2))
  (segment (start 90.17 40.64) (end 96.52 40.64) (width 0.25) (layer F.Cu) (net 3))
  (segment (start 97.884999 41.815001) (end 99.06 40.64) (width 0.25) (layer F.Cu) (net 4))
  (segment (start 88.805001 41.815001) (end 97.884999 41.815001) (width 0.25) (layer F.Cu) (net 4))
  (segment (start 87.63 40.64) (end 88.805001 41.815001) (width 0.25) (layer F.Cu) (net 4))
  (segment (start 90.17 43.18) (end 96.52 43.18) (width 0.25) (layer F.Cu) (net 5))
  (segment (start 97.884999 44.355001) (end 99.06 43.18) (width 0.25) (layer F.Cu) (net 6))
  (segment (start 88.805001 44.355001) (end 97.884999 44.355001) (width 0.25) (layer F.Cu) (net 6))
  (segment (start 87.63 43.18) (end 88.805001 44.355001) (width 0.25) (layer F.Cu) (net 6))
  (segment (start 90.17 45.72) (end 96.52 45.72) (width 0.25) (layer F.Cu) (net 7))
  (segment (start 97.884999 46.895001) (end 99.06 45.72) (width 0.25) (layer F.Cu) (net 8))
  (segment (start 88.805001 46.895001) (end 97.884999 46.895001) (width 0.25) (layer F.Cu) (net 8))
  (segment (start 87.63 45.72) (end 88.805001 46.895001) (width 0.25) (layer F.Cu) (net 8))
  (segment (start 90.17 48.26) (end 96.52 48.26) (width 0.25) (layer F.Cu) (net 9))
  (segment (start 97.884999 49.435001) (end 99.06 48.26) (width 0.25) (layer F.Cu) (net 10))
  (segment (start 88.805001 49.435001) (end 97.884999 49.435001) (width 0.25) (layer F.Cu) (net 10))
  (segment (start 87.63 48.26) (end 88.805001 49.435001) (width 0.25) (layer F.Cu) (net 10))
  (segment (start 90.17 50.8) (end 96.52 50.8) (width 0.25) (layer F.Cu) (net 11))
  (segment (start 97.884999 51.975001) (end 99.06 50.8) (width 0.25) (layer F.Cu) (net 12))
  (segment (start 88.805001 51.975001) (end 97.884999 51.975001) (width 0.25) (layer F.Cu) (net 12))
  (segment (start 87.63 50.8) (end 88.805001 51.975001) (width 0.25) (layer F.Cu) (net 12))
  (segment (start 90.17 53.34) (end 96.52 53.34) (width 0.25) (layer F.Cu) (net 13))
  (segment (start 88.805001 54.515001) (end 97.884999 54.515001) (width 0.25) (layer F.Cu) (net 14))
  (segment (start 97.884999 54.515001) (end 99.06 53.34) (width 0.25) (layer F.Cu) (net 14))
  (segment (start 87.63 53.34) (end 88.805001 54.515001) (width 0.25) (layer F.Cu) (net 14))
  (segment (start 90.17 55.88) (end 96.52 55.88) (width 0.25) (layer F.Cu) (net 15))
  (segment (start 97.884999 57.055001) (end 99.06 55.88) (width 0.25) (layer F.Cu) (net 16))
  (segment (start 88.805001 57.055001) (end 97.884999 57.055001) (width 0.25) (layer F.Cu) (net 16))
  (segment (start 87.63 55.88) (end 88.805001 57.055001) (width 0.25) (layer F.Cu) (net 16))
  (segment (start 90.17 58.42) (end 96.52 58.42) (width 0.25) (layer F.Cu) (net 17))
  (segment (start 97.884999 59.595001) (end 99.06 58.42) (width 0.25) (layer F.Cu) (net 18))
  (segment (start 88.805001 59.595001) (end 97.884999 59.595001) (width 0.25) (layer F.Cu) (net 18))
  (segment (start 87.63 58.42) (end 88.805001 59.595001) (width 0.25) (layer F.Cu) (net 18))
  (segment (start 90.17 60.96) (end 96.52 60.96) (width 0.25) (layer F.Cu) (net 19))
  (segment (start 88.805001 62.135001) (end 97.884999 62.135001) (width 0.25) (layer F.Cu) (net 20))
  (segment (start 97.884999 62.135001) (end 99.06 60.96) (width 0.25) (layer F.Cu) (net 20))
  (segment (start 87.63 60.96) (end 88.805001 62.135001) (width 0.25) (layer F.Cu) (net 20))
  (segment (start 90.17 63.5) (end 96.52 63.5) (width 0.25) (layer F.Cu) (net 21))
  (segment (start 97.884999 64.675001) (end 99.06 63.5) (width 0.25) (layer F.Cu) (net 22))
  (segment (start 88.805001 64.675001) (end 97.884999 64.675001) (width 0.25) (layer F.Cu) (net 22))
  (segment (start 87.63 63.5) (end 88.805001 64.675001) (width 0.25) (layer F.Cu) (net 22))
  (segment (start 90.17 66.04) (end 96.52 66.04) (width 0.25) (layer F.Cu) (net 23))
  (segment (start 88.805001 67.215001) (end 97.884999 67.215001) (width 0.25) (layer F.Cu) (net 24))
  (segment (start 97.884999 67.215001) (end 99.06 66.04) (width 0.25) (layer F.Cu) (net 24))
  (segment (start 87.63 66.04) (end 88.805001 67.215001) (width 0.25) (layer F.Cu) (net 24))
  (segment (start 90.17 68.58) (end 96.52 68.58) (width 0.25) (layer F.Cu) (net 25))
  (segment (start 97.884999 69.755001) (end 99.06 68.58) (width 0.25) (layer F.Cu) (net 26))
  (segment (start 88.805001 69.755001) (end 97.884999 69.755001) (width 0.25) (layer F.Cu) (net 26))
  (segment (start 87.63 68.58) (end 88.805001 69.755001) (width 0.25) (layer F.Cu) (net 26))
  (segment (start 90.17 71.12) (end 96.52 71.12) (width 0.25) (layer F.Cu) (net 27))
  (segment (start 97.884999 72.295001) (end 99.06 71.12) (width 0.25) (layer F.Cu) (net 28))
  (segment (start 88.805001 72.295001) (end 97.884999 72.295001) (width 0.25) (layer F.Cu) (net 28))
  (segment (start 87.63 71.12) (end 88.805001 72.295001) (width 0.25) (layer F.Cu) (net 28))
  (segment (start 90.17 73.66) (end 96.52 73.66) (width 0.25) (layer F.Cu) (net 29))
  (segment (start 97.884999 74.835001) (end 99.06 73.66) (width 0.25) (layer F.Cu) (net 30))
  (segment (start 88.805001 74.835001) (end 97.884999 74.835001) (width 0.25) (layer F.Cu) (net 30))
  (segment (start 87.63 73.66) (end 88.805001 74.835001) (width 0.25) (layer F.Cu) (net 30))
  (segment (start 90.17 76.2) (end 96.52 76.2) (width 0.25) (layer F.Cu) (net 31))
  (segment (start 88.805001 77.375001) (end 97.884999 77.375001) (width 0.25) (layer F.Cu) (net 32))
  (segment (start 97.884999 77.375001) (end 99.06 76.2) (width 0.25) (layer F.Cu) (net 32))
  (segment (start 87.63 76.2) (end 88.805001 77.375001) (width 0.25) (layer F.Cu) (net 32))
  (segment (start 90.17 78.74) (end 96.52 78.74) (width 0.25) (layer F.Cu) (net 33))
  (segment (start 88.805001 79.915001) (end 97.884999 79.915001) (width 0.25) (layer F.Cu) (net 34))
  (segment (start 97.884999 79.915001) (end 99.06 78.74) (width 0.25) (layer F.Cu) (net 34))
  (segment (start 87.63 78.74) (end 88.805001 79.915001) (width 0.25) (layer F.Cu) (net 34))
  (segment (start 90.17 81.28) (end 96.52 81.28) (width 0.25) (layer F.Cu) (net 35))
  (segment (start 97.884999 82.455001) (end 99.06 81.28) (width 0.25) (layer F.Cu) (net 36))
  (segment (start 88.805001 82.455001) (end 97.884999 82.455001) (width 0.25) (layer F.Cu) (net 36))
  (segment (start 87.63 81.28) (end 88.805001 82.455001) (width 0.25) (layer F.Cu) (net 36))
  (segment (start 90.17 83.82) (end 96.52 83.82) (width 0.25) (layer F.Cu) (net 37))
  (segment (start 97.884999 84.995001) (end 99.06 83.82) (width 0.25) (layer F.Cu) (net 38))
  (segment (start 88.805001 84.995001) (end 97.884999 84.995001) (width 0.25) (layer F.Cu) (net 38))
  (segment (start 87.63 83.82) (end 88.805001 84.995001) (width 0.25) (layer F.Cu) (net 38))
  (segment (start 90.17 86.36) (end 96.52 86.36) (width 0.25) (layer F.Cu) (net 39))
  (segment (start 97.884999 87.535001) (end 99.06 86.36) (width 0.25) (layer F.Cu) (net 40))
  (segment (start 88.805001 87.535001) (end 97.884999 87.535001) (width 0.25) (layer F.Cu) (net 40))
  (segment (start 87.63 86.36) (end 88.805001 87.535001) (width 0.25) (layer F.Cu) (net 40))
  (segment (start 90.17 88.9) (end 96.52 88.9) (width 0.25) (layer F.Cu) (net 41))
  (segment (start 97.884999 90.075001) (end 99.06 88.9) (width 0.25) (layer F.Cu) (net 42))
  (segment (start 88.805001 90.075001) (end 97.884999 90.075001) (width 0.25) (layer F.Cu) (net 42))
  (segment (start 87.63 88.9) (end 88.805001 90.075001) (width 0.25) (layer F.Cu) (net 42))
  (segment (start 90.17 91.44) (end 96.52 91.44) (width 0.25) (layer F.Cu) (net 43))
  (segment (start 97.884999 92.615001) (end 99.06 91.44) (width 0.25) (layer F.Cu) (net 44))
  (segment (start 88.805001 92.615001) (end 97.884999 92.615001) (width 0.25) (layer F.Cu) (net 44))
  (segment (start 87.63 91.44) (end 88.805001 92.615001) (width 0.25) (layer F.Cu) (net 44))
  (segment (start 90.17 93.98) (end 96.52 93.98) (width 0.25) (layer F.Cu) (net 45))
  (segment (start 97.884999 95.155001) (end 99.06 93.98) (width 0.25) (layer F.Cu) (net 46))
  (segment (start 88.805001 95.155001) (end 97.884999 95.155001) (width 0.25) (layer F.Cu) (net 46))
  (segment (start 87.63 93.98) (end 88.805001 95.155001) (width 0.25) (layer F.Cu) (net 46))
  (segment (start 90.17 96.52) (end 96.52 96.52) (width 0.25) (layer F.Cu) (net 47))
  (segment (start 97.884999 97.695001) (end 99.06 96.52) (width 0.25) (layer F.Cu) (net 48))
  (segment (start 88.805001 97.695001) (end 97.884999 97.695001) (width 0.25) (layer F.Cu) (net 48))
  (segment (start 87.63 96.52) (end 88.805001 97.695001) (width 0.25) (layer F.Cu) (net 48))

)
