EESchema Schematic File Version 4
EELAYER 30 0
EELAYER END
$Descr A4 11693 8268
encoding utf-8
Sheet 1 1
Title ""
Date ""
Rev ""
Comp ""
Comment1 ""
Comment2 ""
Comment3 ""
Comment4 ""
$EndDescr
$Comp
L Connector_Generic:Conn_02x24_Odd_Even SLOTCONN1
U 1 1 5F91CCE1
P 1050 2250
F 0 "SLOTCONN1" H 1100 3567 50  0000 C CNN
F 1 "02x24 male 90deg" H 1100 3476 50  0000 C CNN
F 2 "Connector_PinHeader_2.54mm:PinHeader_2x24_P2.54mm_Horizontal" H 1050 2250 50  0001 C CNN
F 3 "~" H 1050 2250 50  0001 C CNN
	1    1050 2250
	1    0    0    -1  
$EndComp
$Comp
L power:GND #PWR0101
U 1 1 5F921942
P 1550 900
F 0 "#PWR0101" H 1550 650 50  0001 C CNN
F 1 "GND" H 1555 727 50  0000 C CNN
F 2 "" H 1550 900 50  0001 C CNN
F 3 "" H 1550 900 50  0001 C CNN
	1    1550 900 
	-1   0    0    1   
$EndComp
$Comp
L power:+5V #PWR0102
U 1 1 5F9209DC
P 650 900
F 0 "#PWR0102" H 650 750 50  0001 C CNN
F 1 "+5V" H 665 1073 50  0000 C CNN
F 2 "" H 650 900 50  0001 C CNN
F 3 "" H 650 900 50  0001 C CNN
	1    650  900 
	1    0    0    -1  
$EndComp
Wire Wire Line
	650  900  650  1150
Wire Wire Line
	1550 900  1550 1150
Wire Wire Line
	1550 1150 1350 1150
Wire Wire Line
	650  1150 850  1150
Text Label 850  1250 2    50   ~ 0
A0
Text Label 850  1350 2    50   ~ 0
A1
Text Label 850  1450 2    50   ~ 0
A2
Text Label 850  1550 2    50   ~ 0
A3
Text Label 850  1650 2    50   ~ 0
A4
Text Label 850  1750 2    50   ~ 0
A5
Text Label 850  1850 2    50   ~ 0
A6
Text Label 850  1950 2    50   ~ 0
A7
Text Label 850  2050 2    50   ~ 0
A8
Text Label 850  2150 2    50   ~ 0
A9
Text Label 850  2250 2    50   ~ 0
A10
Text Label 850  2350 2    50   ~ 0
A11
Text Label 850  2450 2    50   ~ 0
A12
Text Label 850  2550 2    50   ~ 0
A13
Text Label 850  2650 2    50   ~ 0
A14
Text Label 850  2750 2    50   ~ 0
A15
Text Label 1350 1250 0    50   ~ 0
D0
Text Label 1350 1350 0    50   ~ 0
D1
Text Label 1350 1450 0    50   ~ 0
D2
Text Label 1350 1550 0    50   ~ 0
D3
Text Label 1350 1650 0    50   ~ 0
D4
Text Label 1350 1750 0    50   ~ 0
D5
Text Label 1350 1850 0    50   ~ 0
D6
Text Label 1350 1950 0    50   ~ 0
D7
Text Label 1350 2050 0    50   ~ 0
~M1
Text Label 1350 2150 0    50   ~ 0
~MREQ
Text Label 1350 2250 0    50   ~ 0
~IORQ
Text Label 1350 2350 0    50   ~ 0
~RD
Text Label 1350 2450 0    50   ~ 0
~WR
Text Label 1350 2550 0    50   ~ 0
~RFSH
Text Label 1350 2650 0    50   ~ 0
~HALT
Text Label 1350 2750 0    50   ~ 0
~WAIT
Text Label 1350 2850 0    50   ~ 0
~INT
Text Label 1350 2950 0    50   ~ 0
~NMI
Text Label 1350 3050 0    50   ~ 0
~RESET
Text Label 1350 3150 0    50   ~ 0
~BUSRQ
Text Label 1350 3250 0    50   ~ 0
~BUSACK
Text Label 1350 3350 0    50   ~ 0
~CLK
Text Label 850  2850 2    50   ~ 0
IMEM
Text Label 850  2950 2    50   ~ 0
ICLK
Text Label 850  3050 2    50   ~ 0
USR0
Text Label 850  3150 2    50   ~ 0
USR1
Text Label 850  3250 2    50   ~ 0
USR2
Text Label 850  3350 2    50   ~ 0
USR3
Text Label 850  3450 2    50   ~ 0
IEI
Text Label 1350 3450 0    50   ~ 0
IEO
$Comp
L bluepill:YAAJ_BluePill_Part_Like U2
U 1 1 6093F1BB
P 4450 1950
F 0 "U2" H 4450 3115 50  0000 C CNN
F 1 "STM32F103 BluePill" H 4450 3024 50  0000 C CNN
F 2 "stm32pills:YAAJ_BluePill_1" H 5150 950 50  0001 C CNN
F 3 "" H 5150 950 50  0001 C CNN
	1    4450 1950
	1    0    0    -1  
$EndComp
$Comp
L Interface_Expansion:MCP23017_SP U4
U 1 1 60885D91
P 8900 1900
F 0 "U4" H 8550 2900 50  0000 C CNN
F 1 "MCP23017_SP" H 9200 2900 50  0000 C CNN
F 2 "Package_DIP:DIP-28_W7.62mm" H 9100 900 50  0001 L CNN
F 3 "http://ww1.microchip.com/downloads/en/DeviceDoc/20001952C.pdf" H 9100 800 50  0001 L CNN
	1    8900 1900
	1    0    0    -1  
$EndComp
$Comp
L Interface_Expansion:MCP23017_SP U5
U 1 1 6088831C
P 8900 4700
F 0 "U5" H 8500 5700 50  0000 C CNN
F 1 "MCP23017_SP" H 9250 5700 50  0000 C CNN
F 2 "Package_DIP:DIP-28_W7.62mm" H 9100 3700 50  0001 L CNN
F 3 "http://ww1.microchip.com/downloads/en/DeviceDoc/20001952C.pdf" H 9100 3600 50  0001 L CNN
	1    8900 4700
	1    0    0    -1  
$EndComp
$Comp
L power:+5V #PWR018
U 1 1 6088E3B7
P 8900 800
F 0 "#PWR018" H 8900 650 50  0001 C CNN
F 1 "+5V" H 8915 973 50  0000 C CNN
F 2 "" H 8900 800 50  0001 C CNN
F 3 "" H 8900 800 50  0001 C CNN
	1    8900 800 
	1    0    0    -1  
$EndComp
$Comp
L power:+5V #PWR020
U 1 1 6089365D
P 8900 3600
F 0 "#PWR020" H 8900 3450 50  0001 C CNN
F 1 "+5V" H 8915 3773 50  0000 C CNN
F 2 "" H 8900 3600 50  0001 C CNN
F 3 "" H 8900 3600 50  0001 C CNN
	1    8900 3600
	1    0    0    -1  
$EndComp
$Comp
L power:GND #PWR019
U 1 1 6089B23F
P 8900 3000
F 0 "#PWR019" H 8900 2750 50  0001 C CNN
F 1 "GND" H 8905 2827 50  0000 C CNN
F 2 "" H 8900 3000 50  0001 C CNN
F 3 "" H 8900 3000 50  0001 C CNN
	1    8900 3000
	1    0    0    -1  
$EndComp
$Comp
L power:GND #PWR021
U 1 1 6089EBB6
P 8900 5800
F 0 "#PWR021" H 8900 5550 50  0001 C CNN
F 1 "GND" H 8905 5627 50  0000 C CNN
F 2 "" H 8900 5800 50  0001 C CNN
F 3 "" H 8900 5800 50  0001 C CNN
	1    8900 5800
	1    0    0    -1  
$EndComp
Wire Wire Line
	8200 2700 8200 3000
Wire Wire Line
	8200 3000 8900 3000
Connection ~ 8900 3000
Wire Wire Line
	8200 2600 8200 2700
Connection ~ 8200 2700
Wire Wire Line
	8200 2500 8200 2600
Connection ~ 8200 2600
Connection ~ 8900 5800
Wire Wire Line
	8000 5800 8000 5400
Wire Wire Line
	8000 5400 8200 5400
Wire Wire Line
	8000 5800 8900 5800
Wire Wire Line
	8200 5300 8000 5300
Wire Wire Line
	8000 5300 8000 5400
Connection ~ 8000 5400
$Comp
L power:+5V #PWR017
U 1 1 608A6477
P 8200 5700
F 0 "#PWR017" H 8200 5550 50  0001 C CNN
F 1 "+5V" V 8200 5900 50  0000 C CNN
F 2 "" H 8200 5700 50  0001 C CNN
F 3 "" H 8200 5700 50  0001 C CNN
	1    8200 5700
	0    1    1    0   
$EndComp
$Comp
L Device:R R3
U 1 1 608A953D
P 8100 5600
F 0 "R3" H 8170 5646 50  0000 L CNN
F 1 "4k7" V 8100 5550 50  0000 L CNN
F 2 "Resistor_THT:R_Axial_DIN0207_L6.3mm_D2.5mm_P10.16mm_Horizontal" V 8030 5600 50  0001 C CNN
F 3 "~" H 8100 5600 50  0001 C CNN
	1    8100 5600
	1    0    0    -1  
$EndComp
Wire Wire Line
	8200 5500 8200 5450
Wire Wire Line
	8200 5450 8100 5450
Wire Wire Line
	8200 5700 8200 5750
Wire Wire Line
	8200 5750 8100 5750
$Comp
L Device:R R1
U 1 1 608B1AC1
P 1050 4500
F 0 "R1" H 1120 4546 50  0000 L CNN
F 1 "10k" V 1050 4450 50  0000 L CNN
F 2 "Resistor_THT:R_Axial_DIN0207_L6.3mm_D2.5mm_P10.16mm_Horizontal" V 980 4500 50  0001 C CNN
F 3 "~" H 1050 4500 50  0001 C CNN
	1    1050 4500
	1    0    0    -1  
$EndComp
$Comp
L Device:R R2
U 1 1 608B1E8D
P 1300 4500
F 0 "R2" H 1370 4546 50  0000 L CNN
F 1 "10k" V 1300 4450 50  0000 L CNN
F 2 "Resistor_THT:R_Axial_DIN0207_L6.3mm_D2.5mm_P10.16mm_Horizontal" V 1230 4500 50  0001 C CNN
F 3 "~" H 1300 4500 50  0001 C CNN
	1    1300 4500
	1    0    0    -1  
$EndComp
$Comp
L power:+5V #PWR01
U 1 1 608B2850
P 1050 4350
F 0 "#PWR01" H 1050 4200 50  0001 C CNN
F 1 "+5V" H 1065 4523 50  0000 C CNN
F 2 "" H 1050 4350 50  0001 C CNN
F 3 "" H 1050 4350 50  0001 C CNN
	1    1050 4350
	1    0    0    -1  
$EndComp
$Comp
L power:+5V #PWR02
U 1 1 608B2F2B
P 1300 4350
F 0 "#PWR02" H 1300 4200 50  0001 C CNN
F 1 "+5V" H 1315 4523 50  0000 C CNN
F 2 "" H 1300 4350 50  0001 C CNN
F 3 "" H 1300 4350 50  0001 C CNN
	1    1300 4350
	1    0    0    -1  
$EndComp
Text Label 1300 4650 3    50   ~ 0
SDA
Text Label 1050 4650 3    50   ~ 0
SCL
Text Label 8200 1200 2    50   ~ 0
SCL
Text Label 3650 2350 2    50   ~ 0
SCL
Text Label 8200 4000 2    50   ~ 0
SCL
Text Label 8200 1100 2    50   ~ 0
SDA
Text Label 8200 3900 2    50   ~ 0
SDA
Text Label 3650 2450 2    50   ~ 0
SDA
$Comp
L Device:Jumper JP1
U 1 1 608D936E
P 3100 2750
F 0 "JP1" H 3100 3014 50  0000 C CNN
F 1 "VCC" H 3100 2923 50  0000 C CNN
F 2 "Connector_PinHeader_2.54mm:PinHeader_1x02_P2.54mm_Vertical" H 3100 2750 50  0001 C CNN
F 3 "~" H 3100 2750 50  0001 C CNN
	1    3100 2750
	1    0    0    -1  
$EndComp
Wire Wire Line
	3400 2750 3650 2750
$Comp
L power:+5V #PWR04
U 1 1 608DBAD3
P 2700 2750
F 0 "#PWR04" H 2700 2600 50  0001 C CNN
F 1 "+5V" V 2700 2950 50  0000 C CNN
F 2 "" H 2700 2750 50  0001 C CNN
F 3 "" H 2700 2750 50  0001 C CNN
	1    2700 2750
	0    -1   -1   0   
$EndComp
Wire Wire Line
	2700 2750 2800 2750
$Comp
L power:+5V #PWR015
U 1 1 608EA517
P 8200 2000
F 0 "#PWR015" H 8200 1850 50  0001 C CNN
F 1 "+5V" H 8215 2173 50  0000 C CNN
F 2 "" H 8200 2000 50  0001 C CNN
F 3 "" H 8200 2000 50  0001 C CNN
	1    8200 2000
	0    -1   -1   0   
$EndComp
$Comp
L power:+5V #PWR016
U 1 1 608EAF30
P 8200 4800
F 0 "#PWR016" H 8200 4650 50  0001 C CNN
F 1 "+5V" H 8215 4973 50  0000 C CNN
F 2 "" H 8200 4800 50  0001 C CNN
F 3 "" H 8200 4800 50  0001 C CNN
	1    8200 4800
	0    -1   -1   0   
$EndComp
$Comp
L power:GND #PWR07
U 1 1 608F9C1D
P 3650 2850
F 0 "#PWR07" H 3650 2600 50  0001 C CNN
F 1 "GND" V 3650 2650 50  0000 C CNN
F 2 "" H 3650 2850 50  0001 C CNN
F 3 "" H 3650 2850 50  0001 C CNN
	1    3650 2850
	0    1    1    0   
$EndComp
Text Label 9600 1100 0    50   ~ 0
A0
Text Label 9600 1200 0    50   ~ 0
A1
Text Label 9600 1300 0    50   ~ 0
A2
Text Label 9600 1400 0    50   ~ 0
A3
Text Label 9600 1500 0    50   ~ 0
A4
Text Label 9600 1600 0    50   ~ 0
A5
Text Label 9600 1700 0    50   ~ 0
A6
Text Label 9600 1800 0    50   ~ 0
A7
Text Label 9600 2000 0    50   ~ 0
A8
Text Label 9600 2100 0    50   ~ 0
A9
Text Label 9600 2200 0    50   ~ 0
A10
Text Label 9600 2300 0    50   ~ 0
A11
Text Label 9600 2400 0    50   ~ 0
A12
Text Label 9600 2500 0    50   ~ 0
A13
Text Label 9600 2600 0    50   ~ 0
A14
Text Label 9600 2700 0    50   ~ 0
A15
Text Label 9600 3900 0    50   ~ 0
D0
Text Label 9600 4000 0    50   ~ 0
D1
Text Label 9600 4100 0    50   ~ 0
D2
Text Label 9600 4200 0    50   ~ 0
D3
Text Label 9600 4300 0    50   ~ 0
D4
Text Label 9600 4400 0    50   ~ 0
D5
Text Label 9600 4500 0    50   ~ 0
D6
Text Label 9600 4600 0    50   ~ 0
D7
Text Label 7050 2450 0    50   ~ 0
IMEM
Text Label 7050 2550 0    50   ~ 0
ICLK
Text Label 9600 5000 0    50   ~ 0
USR0
Text Label 9600 5100 0    50   ~ 0
USR1
Text Label 9600 5200 0    50   ~ 0
USR2
Text Label 9600 5300 0    50   ~ 0
USR3
Text Label 9600 4800 0    50   ~ 0
IEI
Text Label 9600 4900 0    50   ~ 0
IEO
Text Label 2350 1150 2    50   ~ 0
~M1
Text Label 2350 1250 2    50   ~ 0
~MREQ
Text Label 2350 1350 2    50   ~ 0
~IORQ
Text Label 2350 1450 2    50   ~ 0
~RD
Text Label 2350 1550 2    50   ~ 0
~WR
Text Label 2350 1650 2    50   ~ 0
~RFSH
Text Label 2350 1750 2    50   ~ 0
~HALT
Text Label 2350 1850 2    50   ~ 0
~WAIT
Text Label 7050 1850 0    50   ~ 0
~INT
Text Label 7050 1950 0    50   ~ 0
~NMI
Text Label 7050 2050 0    50   ~ 0
~RESET
Text Label 7050 2150 0    50   ~ 0
~BUSRQ
Text Label 7050 2250 0    50   ~ 0
~BUSACK
Text Label 7050 2350 0    50   ~ 0
~CLK
$Comp
L Connector_Generic:Conn_01x02 J1
U 1 1 609C647B
P 9800 5400
F 0 "J1" H 9880 5392 50  0000 L CNN
F 1 "Conn_01x02" H 9880 5301 50  0000 L CNN
F 2 "Connector_PinHeader_2.54mm:PinHeader_1x02_P2.54mm_Horizontal" H 9800 5400 50  0001 C CNN
F 3 "~" H 9800 5400 50  0001 C CNN
	1    9800 5400
	1    0    0    -1  
$EndComp
$Comp
L Logic_LevelTranslator:TXB0108DQSR U3
U 1 1 60A0FC40
P 6650 2150
F 0 "U3" H 6400 1500 50  0000 C CNN
F 1 "TXB0108DQSR" H 7000 1500 50  0000 C CNN
F 2 "Package_SON:USON-20_2x4mm_P0.4mm" H 6650 1400 50  0001 C CNN
F 3 "http://www.ti.com/lit/ds/symlink/txb0108.pdf" H 6650 2050 50  0001 C CNN
	1    6650 2150
	1    0    0    -1  
$EndComp
Wire Wire Line
	5250 2550 6250 2550
Wire Wire Line
	5250 2450 6250 2450
Wire Wire Line
	5250 2350 6250 2350
Wire Wire Line
	5250 2250 6250 2250
Wire Wire Line
	5250 2150 6250 2150
Wire Wire Line
	5250 2050 6250 2050
Wire Wire Line
	5250 1950 6250 1950
$Comp
L power:+5V #PWR014
U 1 1 60A82E36
P 6750 1450
F 0 "#PWR014" H 6750 1300 50  0001 C CNN
F 1 "+5V" H 6765 1623 50  0000 C CNN
F 2 "" H 6750 1450 50  0001 C CNN
F 3 "" H 6750 1450 50  0001 C CNN
	1    6750 1450
	1    0    0    -1  
$EndComp
$Comp
L power:+3V3 #PWR08
U 1 1 60A885C5
P 3650 2950
F 0 "#PWR08" H 3650 2800 50  0001 C CNN
F 1 "+3V3" V 3665 3078 50  0000 L CNN
F 2 "" H 3650 2950 50  0001 C CNN
F 3 "" H 3650 2950 50  0001 C CNN
	1    3650 2950
	0    -1   -1   0   
$EndComp
$Comp
L power:+3V3 #PWR012
U 1 1 60A8E9D0
P 6550 1450
F 0 "#PWR012" H 6550 1300 50  0001 C CNN
F 1 "+3V3" H 6565 1623 50  0000 C CNN
F 2 "" H 6550 1450 50  0001 C CNN
F 3 "" H 6550 1450 50  0001 C CNN
	1    6550 1450
	1    0    0    -1  
$EndComp
$Comp
L power:GND #PWR013
U 1 1 60A8F3C1
P 6650 2850
F 0 "#PWR013" H 6650 2600 50  0001 C CNN
F 1 "GND" V 6650 2650 50  0000 C CNN
F 2 "" H 6650 2850 50  0001 C CNN
F 3 "" H 6650 2850 50  0001 C CNN
	1    6650 2850
	1    0    0    -1  
$EndComp
Wire Wire Line
	5250 1850 6250 1850
Wire Wire Line
	5250 1750 6250 1750
$Comp
L Logic_LevelTranslator:TXB0108DQSR U1
U 1 1 60AA312B
P 2750 1450
F 0 "U1" H 2500 800 50  0000 C CNN
F 1 "TXB0108DQSR" H 3100 800 50  0000 C CNN
F 2 "Package_SON:USON-20_2x4mm_P0.4mm" H 2750 700 50  0001 C CNN
F 3 "http://www.ti.com/lit/ds/symlink/txb0108.pdf" H 2750 1350 50  0001 C CNN
	1    2750 1450
	-1   0    0    -1  
$EndComp
$Comp
L power:+5V #PWR03
U 1 1 60AA33F3
P 2650 750
F 0 "#PWR03" H 2650 600 50  0001 C CNN
F 1 "+5V" H 2665 923 50  0000 C CNN
F 2 "" H 2650 750 50  0001 C CNN
F 3 "" H 2650 750 50  0001 C CNN
	1    2650 750 
	-1   0    0    -1  
$EndComp
$Comp
L power:+3V3 #PWR06
U 1 1 60AA33FD
P 2850 750
F 0 "#PWR06" H 2850 600 50  0001 C CNN
F 1 "+3V3" H 2865 923 50  0000 C CNN
F 2 "" H 2850 750 50  0001 C CNN
F 3 "" H 2850 750 50  0001 C CNN
	1    2850 750 
	-1   0    0    -1  
$EndComp
$Comp
L power:GND #PWR05
U 1 1 60AA3407
P 2750 2150
F 0 "#PWR05" H 2750 1900 50  0001 C CNN
F 1 "GND" V 2750 1950 50  0000 C CNN
F 2 "" H 2750 2150 50  0001 C CNN
F 3 "" H 2750 2150 50  0001 C CNN
	1    2750 2150
	-1   0    0    -1  
$EndComp
Wire Wire Line
	3150 1050 3650 1050
Wire Wire Line
	3150 1150 3650 1150
Wire Wire Line
	3150 1250 3650 1250
Wire Wire Line
	3150 1350 3650 1350
Wire Wire Line
	3150 1450 3650 1450
Wire Wire Line
	3150 1550 3650 1550
Wire Wire Line
	3150 1650 3650 1650
Wire Wire Line
	3150 1750 3500 1750
Wire Wire Line
	3500 1750 3500 1950
Wire Wire Line
	3500 1950 3650 1950
Wire Wire Line
	3150 1850 3400 1850
Wire Wire Line
	3400 1850 3400 2050
Wire Wire Line
	3400 2050 3650 2050
NoConn ~ 3650 1750
NoConn ~ 3650 1850
NoConn ~ 5250 2850
NoConn ~ 5250 2750
NoConn ~ 5250 2650
$Comp
L power:GND #PWR09
U 1 1 60AF2CA0
P 5250 1050
F 0 "#PWR09" H 5250 800 50  0001 C CNN
F 1 "GND" V 5250 850 50  0000 C CNN
F 2 "" H 5250 1050 50  0001 C CNN
F 3 "" H 5250 1050 50  0001 C CNN
	1    5250 1050
	0    -1   -1   0   
$EndComp
$Comp
L power:GND #PWR010
U 1 1 60AF3659
P 5250 1150
F 0 "#PWR010" H 5250 900 50  0001 C CNN
F 1 "GND" V 5250 950 50  0000 C CNN
F 2 "" H 5250 1150 50  0001 C CNN
F 3 "" H 5250 1150 50  0001 C CNN
	1    5250 1150
	0    -1   -1   0   
$EndComp
$Comp
L power:+3V3 #PWR011
U 1 1 60AF3DCF
P 5250 1250
F 0 "#PWR011" H 5250 1100 50  0001 C CNN
F 1 "+3V3" V 5265 1378 50  0000 L CNN
F 2 "" H 5250 1250 50  0001 C CNN
F 3 "" H 5250 1250 50  0001 C CNN
	1    5250 1250
	0    1    1    0   
$EndComp
NoConn ~ 5250 1350
NoConn ~ 5250 2950
NoConn ~ 8200 1800
NoConn ~ 8200 1700
NoConn ~ 8200 4500
NoConn ~ 8200 4600
$EndSCHEMATC
